<?xml version="1.0" encoding="UTF-8" standalone="no"?>
<!-- Created with Inkscape (http://www.inkscape.org/) -->

<svg
   xmlns:osb="http://www.openswatchbook.org/uri/2009/osb"
   xmlns:dc="http://purl.org/dc/elements/1.1/"
   xmlns:cc="http://creativecommons.org/ns#"
   xmlns:rdf="http://www.w3.org/1999/02/22-rdf-syntax-ns#"
   xmlns:svg="http://www.w3.org/2000/svg"
   xmlns="http://www.w3.org/2000/svg"
   xmlns:xlink="http://www.w3.org/1999/xlink"
   xmlns:sodipodi="http://sodipodi.sourceforge.net/DTD/sodipodi-0.dtd"
   xmlns:inkscape="http://www.inkscape.org/namespaces/inkscape"
   id="svg3039"
   version="1.1"
   inkscape:version="0.48.5 r10040"
   width="1002"
   height="540"
   sodipodi:docname="GUI-overview.svg"
   inkscape:export-filename="/home/franzi/MPI/GitLab/XNAT_Scan_Ambassador/READMEimages/GUI_overview.png"
   inkscape:export-xdpi="71.845085"
   inkscape:export-ydpi="71.845085">
  <metadata
     id="metadata3045">
    <rdf:RDF>
      <cc:Work
         rdf:about="">
        <dc:format>image/svg+xml</dc:format>
        <dc:type
           rdf:resource="http://purl.org/dc/dcmitype/StillImage" />
        <dc:title></dc:title>
      </cc:Work>
    </rdf:RDF>
  </metadata>
  <defs
     id="defs3043">
    <linearGradient
       id="linearGradient4144"
       osb:paint="solid">
      <stop
         style="stop-color:#960000;stop-opacity:1;"
         offset="0"
         id="stop4146" />
    </linearGradient>
    <linearGradient
       id="linearGradient3844"
       osb:paint="solid">
      <stop
         style="stop-color:#960000;stop-opacity:0.45490196;"
         offset="0"
         id="stop3846" />
    </linearGradient>
    <linearGradient
       inkscape:collect="always"
       xlink:href="#linearGradient3844"
       id="linearGradient3848"
       x1="1.0735587"
       y1="229.74155"
       x2="402.58448"
       y2="229.74155"
       gradientUnits="userSpaceOnUse"
       gradientTransform="matrix(0.98406911,0,0,0.97017646,2.0069994,9.7891918)" />
    <linearGradient
       inkscape:collect="always"
       xlink:href="#linearGradient3844-6"
       id="linearGradient3848-3"
       x1="1.0735587"
       y1="229.74155"
       x2="402.58447"
       y2="229.74155"
       gradientUnits="userSpaceOnUse" />
    <linearGradient
       id="linearGradient3844-6"
       osb:paint="solid">
      <stop
         style="stop-color:#960000;stop-opacity:0.45490196;"
         offset="0"
         id="stop3846-6" />
    </linearGradient>
    <linearGradient
       gradientTransform="matrix(0.98549822,0,0,0.19026523,1.7148702,85.65546)"
       y2="229.74155"
       x2="402.58447"
       y1="229.74155"
       x1="1.0735587"
       gradientUnits="userSpaceOnUse"
       id="linearGradient3864"
       xlink:href="#linearGradient3844-6"
       inkscape:collect="always" />
    <linearGradient
       inkscape:collect="always"
       xlink:href="#linearGradient3844-67"
       id="linearGradient3848-8"
       x1="1.0735587"
       y1="229.74155"
       x2="402.58447"
       y2="229.74155"
       gradientUnits="userSpaceOnUse"
       gradientTransform="matrix(1,0,0,0.97005579,0,9.3868842)" />
    <linearGradient
       id="linearGradient3844-67"
       osb:paint="solid">
      <stop
         style="stop-color:#960000;stop-opacity:0.45490196;"
         offset="0"
         id="stop3846-7" />
    </linearGradient>
    <linearGradient
       y2="229.74155"
       x2="402.58447"
       y1="229.74155"
       x1="1.0735587"
       gradientTransform="matrix(0.98306913,0,0,1.1373431,2.2160854,154.0016)"
       gradientUnits="userSpaceOnUse"
       id="linearGradient3903"
       xlink:href="#linearGradient3844-67"
       inkscape:collect="always" />
    <linearGradient
       gradientTransform="matrix(0.98549822,0,0,0.19026523,1.7148702,85.655458)"
       y2="229.74155"
       x2="402.58447"
       y1="229.74155"
       x1="1.0735587"
       gradientUnits="userSpaceOnUse"
       id="linearGradient3864-8"
       xlink:href="#linearGradient3844-6-4"
       inkscape:collect="always" />
    <linearGradient
       id="linearGradient3844-6-4"
       osb:paint="solid">
      <stop
         style="stop-color:#960000;stop-opacity:0.45490196;"
         offset="0"
         id="stop3846-6-3" />
    </linearGradient>
    <linearGradient
       y2="229.74155"
       x2="402.58447"
       y1="229.74155"
       x1="1.0735587"
       gradientTransform="matrix(0.5314779,0,0,0.39144276,184.45921,-14.983933)"
       gradientUnits="userSpaceOnUse"
       id="linearGradient3934"
       xlink:href="#linearGradient3844-6-4"
       inkscape:collect="always" />
    <linearGradient
       y2="229.74155"
       x2="402.58447"
       y1="229.74155"
       x1="1.0735587"
       gradientTransform="matrix(0.98712124,0,0,0.39144276,1.7777474,-15.186249)"
       gradientUnits="userSpaceOnUse"
       id="linearGradient3934-8"
       xlink:href="#linearGradient3844-6-4-5"
       inkscape:collect="always" />
    <linearGradient
       id="linearGradient3844-6-4-5"
       osb:paint="solid">
      <stop
         style="stop-color:#009600;stop-opacity:0.45490196;"
         offset="0"
         id="stop3846-6-3-2" />
    </linearGradient>
    <linearGradient
       y2="229.74155"
       x2="402.58447"
       y1="229.74155"
       x1="1.0735587"
       gradientTransform="matrix(0.75114391,0,0,0.39144276,403.85716,-14.983925)"
       gradientUnits="userSpaceOnUse"
       id="linearGradient3965"
       xlink:href="#linearGradient3844-6-4-5"
       inkscape:collect="always" />
    <linearGradient
       y2="229.74155"
       x2="402.58447"
       y1="229.74155"
       x1="1.0735587"
       gradientTransform="matrix(0.50831333,0,0,0.39144276,184.48407,-14.983933)"
       gradientUnits="userSpaceOnUse"
       id="linearGradient3934-9"
       xlink:href="#linearGradient3844-6-4-6"
       inkscape:collect="always" />
    <linearGradient
       id="linearGradient3844-6-4-6"
       osb:paint="solid">
      <stop
         style="stop-color:#960000;stop-opacity:0.45490196;"
         offset="0"
         id="stop3846-6-3-0" />
    </linearGradient>
    <linearGradient
       y2="229.74155"
       x2="402.58447"
       y1="229.74155"
       x1="1.0735587"
       gradientTransform="matrix(0.43889377,0,0,0.39144276,1.6173275,-14.983933)"
       gradientUnits="userSpaceOnUse"
       id="linearGradient3996"
       xlink:href="#linearGradient3844-6-4-6"
       inkscape:collect="always" />
    <linearGradient
       y2="229.74155"
       x2="402.58447"
       y1="229.74155"
       x1="1.0735587"
       gradientTransform="matrix(0.75678524,0,0,0.39144276,401.58605,-14.983925)"
       gradientUnits="userSpaceOnUse"
       id="linearGradient3965-1"
       xlink:href="#linearGradient3844-6-4-5-1"
       inkscape:collect="always" />
    <linearGradient
       id="linearGradient3844-6-4-5-1"
       osb:paint="solid">
      <stop
         style="stop-color:#009600;stop-opacity:0.45490196;"
         offset="0"
         id="stop3846-6-3-2-3" />
    </linearGradient>
    <linearGradient
       y2="229.74155"
       x2="402.58447"
       y1="229.74155"
       x1="1.0735587"
       gradientTransform="matrix(1.4730113,0,0,1.1763071,403.72032,-57.807738)"
       gradientUnits="userSpaceOnUse"
       id="linearGradient4027"
       xlink:href="#linearGradient3844-6-4-5-1"
       inkscape:collect="always" />
    <linearGradient
       y2="229.74155"
       x2="402.58447"
       y1="229.74155"
       x1="1.0735587"
       gradientTransform="matrix(1.4730113,0,0,1.1763071,403.76603,-57.807738)"
       gradientUnits="userSpaceOnUse"
       id="linearGradient4027-7"
       xlink:href="#linearGradient3844-6-4-5-1-8"
       inkscape:collect="always" />
    <linearGradient
       id="linearGradient3844-6-4-5-1-8"
       osb:paint="solid">
      <stop
         style="stop-color:#000096;stop-opacity:0.45490196;"
         offset="0"
         id="stop3846-6-3-2-3-1" />
    </linearGradient>
    <linearGradient
       y2="229.74155"
       x2="402.58447"
       y1="229.74155"
       x1="1.0735587"
       gradientTransform="matrix(0.5558772,0,0,0.20012031,404.65254,289.1906)"
       gradientUnits="userSpaceOnUse"
       id="linearGradient4058"
       xlink:href="#linearGradient3844-6-4-5-1-8"
       inkscape:collect="always" />
    <linearGradient
       y2="229.74155"
       x2="402.58447"
       y1="229.74155"
       x1="1.0735587"
       gradientTransform="matrix(1.4730113,0,0,1.1763071,403.76603,-57.807738)"
       gradientUnits="userSpaceOnUse"
       id="linearGradient4027-2"
       xlink:href="#linearGradient3844-6-4-5-1-4"
       inkscape:collect="always" />
    <linearGradient
       id="linearGradient3844-6-4-5-1-4"
       osb:paint="solid">
      <stop
         style="stop-color:#000096;stop-opacity:0.45490196;"
         offset="0"
         id="stop3846-6-3-2-3-6" />
    </linearGradient>
    <linearGradient
       y2="229.74155"
       x2="402.58447"
       y1="229.74155"
       x1="1.0735587"
       gradientTransform="matrix(0.55578539,0,0,0.91993239,404.67103,223.44742)"
       gradientUnits="userSpaceOnUse"
       id="linearGradient4058-0"
       xlink:href="#linearGradient3844-6-4-5-1-4"
       inkscape:collect="always" />
    <linearGradient
       y2="229.74155"
       x2="402.58447"
       y1="229.74155"
       x1="1.0735587"
       gradientTransform="matrix(0.55578539,0,0,0.91993239,404.67103,223.44742)"
       gradientUnits="userSpaceOnUse"
       id="linearGradient4058-0-2"
       xlink:href="#linearGradient3844-6-4-5-1-4-0"
       inkscape:collect="always" />
    <linearGradient
       id="linearGradient3844-6-4-5-1-4-0"
       osb:paint="solid">
      <stop
         style="stop-color:#000096;stop-opacity:0.45490196;"
         offset="0"
         id="stop3846-6-3-2-3-6-0" />
    </linearGradient>
    <linearGradient
       y2="229.74155"
       x2="402.58447"
       y1="229.74155"
       x1="1.0735587"
       gradientTransform="matrix(0.89851591,0,0,1.1522265,634.50279,150.17921)"
       gradientUnits="userSpaceOnUse"
       id="linearGradient4104"
       xlink:href="#linearGradient3844-6-4-5-1-4-0"
       inkscape:collect="always" />
    <linearGradient
       inkscape:collect="always"
       xlink:href="#linearGradient4144"
       id="linearGradient4148"
       x1="282.44623"
       y1="62.716148"
       x2="299.80951"
       y2="62.716148"
       gradientUnits="userSpaceOnUse" />
    <linearGradient
       inkscape:collect="always"
       xlink:href="#linearGradient4144-9"
       id="linearGradient4148-0"
       x1="282.44623"
       y1="62.716148"
       x2="299.80951"
       y2="62.716148"
       gradientUnits="userSpaceOnUse" />
    <linearGradient
       id="linearGradient4144-9"
       osb:paint="solid">
      <stop
         style="stop-color:#960000;stop-opacity:1;"
         offset="0"
         id="stop4146-9" />
    </linearGradient>
    <linearGradient
       inkscape:collect="always"
       xlink:href="#linearGradient4144-9"
       id="linearGradient4163"
       x1="282.44623"
       y1="62.716148"
       x2="299.80951"
       y2="62.716148"
       gradientUnits="userSpaceOnUse" />
    <linearGradient
       id="linearGradient4165"
       osb:paint="solid">
      <stop
         style="stop-color:#960000;stop-opacity:1;"
         offset="0"
         id="stop4167" />
    </linearGradient>
    <linearGradient
       y2="62.716148"
       x2="299.80951"
       y1="62.716148"
       x1="282.44623"
       gradientUnits="userSpaceOnUse"
       id="linearGradient4171"
       xlink:href="#linearGradient4144-9"
       inkscape:collect="always" />
    <linearGradient
       inkscape:collect="always"
       xlink:href="#linearGradient4144-9-5"
       id="linearGradient4204-5"
       gradientUnits="userSpaceOnUse"
       gradientTransform="translate(-22.738209,177.76099)"
       x1="282.44623"
       y1="62.716148"
       x2="299.80951"
       y2="62.716148" />
    <linearGradient
       id="linearGradient4144-9-5"
       osb:paint="solid">
      <stop
         style="stop-color:#960000;stop-opacity:1;"
         offset="0"
         id="stop4146-9-7" />
    </linearGradient>
    <linearGradient
       inkscape:collect="always"
       xlink:href="#linearGradient4144-9-5"
       id="linearGradient4219"
       gradientUnits="userSpaceOnUse"
       gradientTransform="translate(-22.738209,177.76099)"
       x1="282.44623"
       y1="62.716148"
       x2="299.80951"
       y2="62.716148" />
    <linearGradient
       id="linearGradient4221"
       osb:paint="solid">
      <stop
         style="stop-color:#960000;stop-opacity:1;"
         offset="0"
         id="stop4223" />
    </linearGradient>
    <linearGradient
       y2="62.716148"
       x2="299.80951"
       y1="62.716148"
       x1="282.44623"
       gradientTransform="translate(-22.738209,177.76099)"
       gradientUnits="userSpaceOnUse"
       id="linearGradient4227"
       xlink:href="#linearGradient4144-9-5"
       inkscape:collect="always" />
    <linearGradient
       inkscape:collect="always"
       xlink:href="#linearGradient4144-9-5"
       id="linearGradient4268"
       gradientUnits="userSpaceOnUse"
       gradientTransform="translate(-29.173371,67.164914)"
       x1="282.44623"
       y1="62.716148"
       x2="299.80951"
       y2="62.716148" />
    <linearGradient
       inkscape:collect="always"
       xlink:href="#linearGradient4144-9"
       id="linearGradient4280"
       gradientUnits="userSpaceOnUse"
       gradientTransform="translate(-29.179561,63.963774)"
       x1="282.44623"
       y1="62.716148"
       x2="299.80951"
       y2="62.716148" />
    <linearGradient
       inkscape:collect="always"
       xlink:href="#linearGradient4144-9-53"
       id="linearGradient4280-9"
       gradientUnits="userSpaceOnUse"
       gradientTransform="translate(-29.179561,63.963774)"
       x1="282.44623"
       y1="62.716148"
       x2="299.80951"
       y2="62.716148" />
    <linearGradient
       id="linearGradient4144-9-53"
       osb:paint="solid">
      <stop
         style="stop-color:#960000;stop-opacity:1;"
         offset="0"
         id="stop4146-9-5" />
    </linearGradient>
    <linearGradient
       inkscape:collect="always"
       xlink:href="#linearGradient4144-9-53"
       id="linearGradient4301"
       gradientUnits="userSpaceOnUse"
       gradientTransform="translate(-29.179561,63.963774)"
       x1="282.44623"
       y1="62.716148"
       x2="299.80951"
       y2="62.716148" />
    <linearGradient
       id="linearGradient4303"
       osb:paint="solid">
      <stop
         style="stop-color:#960000;stop-opacity:1;"
         offset="0"
         id="stop4305" />
    </linearGradient>
    <linearGradient
       y2="62.716148"
       x2="299.80951"
       y1="62.716148"
       x1="282.44623"
       gradientTransform="translate(-29.179561,63.963774)"
       gradientUnits="userSpaceOnUse"
       id="linearGradient4309"
       xlink:href="#linearGradient4144-9-53"
       inkscape:collect="always" />
    <linearGradient
       inkscape:collect="always"
       xlink:href="#linearGradient4144-9-2"
       id="linearGradient4280-8"
       gradientUnits="userSpaceOnUse"
       gradientTransform="translate(-29.179561,63.963774)"
       x1="282.44623"
       y1="62.716148"
       x2="299.80951"
       y2="62.716148" />
    <linearGradient
       id="linearGradient4144-9-2"
       osb:paint="solid">
      <stop
         style="stop-color:#960000;stop-opacity:1;"
         offset="0"
         id="stop4146-9-3" />
    </linearGradient>
    <linearGradient
       inkscape:collect="always"
       xlink:href="#linearGradient4144-9-2"
       id="linearGradient4301-8"
       gradientUnits="userSpaceOnUse"
       gradientTransform="translate(-29.179561,63.963774)"
       x1="282.44623"
       y1="62.716148"
       x2="299.80951"
       y2="62.716148" />
    <linearGradient
       id="linearGradient4303-5"
       osb:paint="solid">
      <stop
         style="stop-color:#960000;stop-opacity:1;"
         offset="0"
         id="stop4305-9" />
    </linearGradient>
    <linearGradient
       y2="62.716148"
       x2="299.80951"
       y1="62.716148"
       x1="282.44623"
       gradientTransform="translate(-29.179561,63.963774)"
       gradientUnits="userSpaceOnUse"
       id="linearGradient4309-0"
       xlink:href="#linearGradient4144-9-2"
       inkscape:collect="always" />
    <linearGradient
       inkscape:collect="always"
       xlink:href="#linearGradient4144-9-9"
       id="linearGradient4280-1"
       gradientUnits="userSpaceOnUse"
       gradientTransform="translate(-29.179561,63.963774)"
       x1="282.44623"
       y1="62.716148"
       x2="299.80951"
       y2="62.716148" />
    <linearGradient
       id="linearGradient4144-9-9"
       osb:paint="solid">
      <stop
         style="stop-color:#960000;stop-opacity:1;"
         offset="0"
         id="stop4146-9-34" />
    </linearGradient>
    <linearGradient
       inkscape:collect="always"
       xlink:href="#linearGradient4144-9-9"
       id="linearGradient4301-2"
       gradientUnits="userSpaceOnUse"
       gradientTransform="translate(-29.179561,63.963774)"
       x1="282.44623"
       y1="62.716148"
       x2="299.80951"
       y2="62.716148" />
    <linearGradient
       id="linearGradient4303-3"
       osb:paint="solid">
      <stop
         style="stop-color:#960000;stop-opacity:1;"
         offset="0"
         id="stop4305-3" />
    </linearGradient>
    <linearGradient
       y2="62.716148"
       x2="299.80951"
       y1="62.716148"
       x1="282.44623"
       gradientTransform="translate(-29.179561,63.963774)"
       gradientUnits="userSpaceOnUse"
       id="linearGradient4309-3"
       xlink:href="#linearGradient4144-9-9"
       inkscape:collect="always" />
    <linearGradient
       inkscape:collect="always"
       xlink:href="#linearGradient4144-9-53"
       id="linearGradient4428"
       gradientUnits="userSpaceOnUse"
       gradientTransform="translate(3.2142558,-2.3078356)"
       x1="282.44623"
       y1="62.716148"
       x2="299.80951"
       y2="62.716148" />
    <linearGradient
       inkscape:collect="always"
       xlink:href="#linearGradient4144-9-2"
       id="linearGradient4444"
       gradientUnits="userSpaceOnUse"
       gradientTransform="translate(-87.548178,166.89566)"
       x1="282.44623"
       y1="62.716148"
       x2="299.80951"
       y2="62.716148" />
    <linearGradient
       inkscape:collect="always"
       xlink:href="#linearGradient4144-9-9"
       id="linearGradient4452"
       gradientUnits="userSpaceOnUse"
       gradientTransform="translate(-87.486345,349.88122)"
       x1="282.44623"
       y1="62.716148"
       x2="299.80951"
       y2="62.716148" />
    <linearGradient
       inkscape:collect="always"
       xlink:href="#linearGradient4144-9"
       id="linearGradient4466"
       gradientUnits="userSpaceOnUse"
       gradientTransform="translate(-2.3405948,62.890215)"
       x1="282.44623"
       y1="62.716148"
       x2="277.26477"
       y2="60.569031" />
    <linearGradient
       inkscape:collect="always"
       xlink:href="#linearGradient4144-9-53-5"
       id="linearGradient4428-1"
       gradientUnits="userSpaceOnUse"
       gradientTransform="translate(3.2142558,-2.3078356)"
       x1="282.44623"
       y1="62.716148"
       x2="299.80951"
       y2="62.716148" />
    <linearGradient
       id="linearGradient4144-9-53-5"
       osb:paint="solid">
      <stop
         style="stop-color:#960000;stop-opacity:1;"
         offset="0"
         id="stop4146-9-5-4" />
    </linearGradient>
    <linearGradient
       inkscape:collect="always"
       xlink:href="#linearGradient4144-9-53-5"
       id="linearGradient4481"
       gradientUnits="userSpaceOnUse"
       gradientTransform="translate(3.2142558,-2.3078356)"
       x1="282.44623"
       y1="62.716148"
       x2="299.80951"
       y2="62.716148" />
    <linearGradient
       id="linearGradient4483"
       osb:paint="solid">
      <stop
         style="stop-color:#960000;stop-opacity:1;"
         offset="0"
         id="stop4485" />
    </linearGradient>
    <linearGradient
       y2="62.716148"
       x2="299.80951"
       y1="62.716148"
       x1="282.44623"
       gradientTransform="translate(3.2142558,-2.3078356)"
       gradientUnits="userSpaceOnUse"
       id="linearGradient4489"
       xlink:href="#linearGradient4144-9-53-5"
       inkscape:collect="always" />
    <linearGradient
       inkscape:collect="always"
       xlink:href="#linearGradient4144-9-53-5"
       id="linearGradient4542"
       gradientUnits="userSpaceOnUse"
       gradientTransform="translate(-198.31377,-0.34741693)"
       x1="282.44623"
       y1="62.716148"
       x2="299.80951"
       y2="62.716148" />
    <linearGradient
       inkscape:collect="always"
       xlink:href="#linearGradient4144-9-9-8"
       id="linearGradient4452-3"
       gradientUnits="userSpaceOnUse"
       gradientTransform="translate(-87.486345,349.88122)"
       x1="282.44623"
       y1="62.716148"
       x2="299.80951"
       y2="62.716148" />
    <linearGradient
       id="linearGradient4144-9-9-8"
       osb:paint="solid">
      <stop
         style="stop-color:#009600;stop-opacity:1;"
         offset="0"
         id="stop4146-9-34-2" />
    </linearGradient>
    <linearGradient
       inkscape:collect="always"
       xlink:href="#linearGradient4144-9-9-8"
       id="linearGradient4557"
       gradientUnits="userSpaceOnUse"
       gradientTransform="translate(-87.486345,349.88122)"
       x1="282.44623"
       y1="62.716148"
       x2="299.80951"
       y2="62.716148" />
    <linearGradient
       id="linearGradient4559"
       osb:paint="solid">
      <stop
         style="stop-color:#960000;stop-opacity:1;"
         offset="0"
         id="stop4561" />
    </linearGradient>
    <linearGradient
       y2="62.716148"
       x2="299.80951"
       y1="62.716148"
       x1="282.44623"
       gradientTransform="translate(-87.486345,349.88122)"
       gradientUnits="userSpaceOnUse"
       id="linearGradient4565"
       xlink:href="#linearGradient4144-9-9-8"
       inkscape:collect="always" />
    <linearGradient
       inkscape:collect="always"
       xlink:href="#linearGradient4144-9-9-0"
       id="linearGradient4452-8"
       gradientUnits="userSpaceOnUse"
       gradientTransform="translate(-87.486345,349.88122)"
       x1="282.44623"
       y1="62.716148"
       x2="299.80951"
       y2="62.716148" />
    <linearGradient
       id="linearGradient4144-9-9-0"
       osb:paint="solid">
      <stop
         style="stop-color:#009600;stop-opacity:1;"
         offset="0"
         id="stop4146-9-34-1" />
    </linearGradient>
    <linearGradient
       inkscape:collect="always"
       xlink:href="#linearGradient4144-9-9-0"
       id="linearGradient4557-2"
       gradientUnits="userSpaceOnUse"
       gradientTransform="translate(-87.486345,349.88122)"
       x1="282.44623"
       y1="62.716148"
       x2="299.80951"
       y2="62.716148" />
    <linearGradient
       id="linearGradient4559-9"
       osb:paint="solid">
      <stop
         style="stop-color:#960000;stop-opacity:1;"
         offset="0"
         id="stop4561-6" />
    </linearGradient>
    <linearGradient
       y2="62.716148"
       x2="299.80951"
       y1="62.716148"
       x1="282.44623"
       gradientTransform="translate(-87.486345,349.88122)"
       gradientUnits="userSpaceOnUse"
       id="linearGradient4565-1"
       xlink:href="#linearGradient4144-9-9-0"
       inkscape:collect="always" />
    <linearGradient
       inkscape:collect="always"
       xlink:href="#linearGradient4144-9-9-8"
       id="linearGradient4637"
       gradientUnits="userSpaceOnUse"
       gradientTransform="translate(267.39244,-2.5187761)"
       x1="282.44623"
       y1="62.716148"
       x2="299.80951"
       y2="62.716148" />
    <linearGradient
       inkscape:collect="always"
       xlink:href="#linearGradient4144-9-9-0"
       id="linearGradient4645"
       gradientUnits="userSpaceOnUse"
       gradientTransform="translate(412.94943,146.58027)"
       x1="282.44623"
       y1="62.716148"
       x2="299.80951"
       y2="62.716148" />
    <linearGradient
       inkscape:collect="always"
       xlink:href="#linearGradient4144-9-4"
       id="linearGradient4466-8"
       gradientUnits="userSpaceOnUse"
       gradientTransform="translate(-2.3405948,62.890215)"
       x1="282.44623"
       y1="62.716148"
       x2="277.26477"
       y2="60.569031" />
    <linearGradient
       id="linearGradient4144-9-4"
       osb:paint="solid">
      <stop
         style="stop-color:#000096;stop-opacity:1;"
         offset="0"
         id="stop4146-9-0" />
    </linearGradient>
    <linearGradient
       inkscape:collect="always"
       xlink:href="#linearGradient4144-9-4"
       id="linearGradient4660"
       gradientUnits="userSpaceOnUse"
       gradientTransform="translate(-2.3405948,62.890215)"
       x1="282.44623"
       y1="62.716148"
       x2="277.26477"
       y2="60.569031" />
    <linearGradient
       id="linearGradient4662"
       osb:paint="solid">
      <stop
         style="stop-color:#960000;stop-opacity:1;"
         offset="0"
         id="stop4664" />
    </linearGradient>
    <linearGradient
       y2="60.569031"
       x2="277.26477"
       y1="62.716148"
       x1="282.44623"
       gradientTransform="translate(-2.3405948,62.890215)"
       gradientUnits="userSpaceOnUse"
       id="linearGradient4668"
       xlink:href="#linearGradient4144-9-4"
       inkscape:collect="always" />
    <linearGradient
       inkscape:collect="always"
       xlink:href="#linearGradient4144-9-9-0-3"
       id="linearGradient4645-4"
       gradientUnits="userSpaceOnUse"
       gradientTransform="translate(412.94943,146.58027)"
       x1="282.44623"
       y1="62.716148"
       x2="299.80951"
       y2="62.716148" />
    <linearGradient
       id="linearGradient4144-9-9-0-3"
       osb:paint="solid">
      <stop
         style="stop-color:#000096;stop-opacity:1;"
         offset="0"
         id="stop4146-9-34-1-7" />
    </linearGradient>
    <linearGradient
       inkscape:collect="always"
       xlink:href="#linearGradient4144-9-9-0-3"
       id="linearGradient4720"
       gradientUnits="userSpaceOnUse"
       gradientTransform="translate(412.94943,146.58027)"
       x1="282.44623"
       y1="62.716148"
       x2="299.80951"
       y2="62.716148" />
    <linearGradient
       id="linearGradient4722"
       osb:paint="solid">
      <stop
         style="stop-color:#009600;stop-opacity:1;"
         offset="0"
         id="stop4724" />
    </linearGradient>
    <linearGradient
       y2="62.716148"
       x2="299.80951"
       y1="62.716148"
       x1="282.44623"
       gradientTransform="translate(412.94943,146.58027)"
       gradientUnits="userSpaceOnUse"
       id="linearGradient4728"
       xlink:href="#linearGradient4144-9-9-0-3"
       inkscape:collect="always" />
    <linearGradient
       inkscape:collect="always"
       xlink:href="#linearGradient4144-9-9-0-8"
       id="linearGradient4645-49"
       gradientUnits="userSpaceOnUse"
       gradientTransform="translate(412.94943,146.58027)"
       x1="282.44623"
       y1="62.716148"
       x2="299.80951"
       y2="62.716148" />
    <linearGradient
       id="linearGradient4144-9-9-0-8"
       osb:paint="solid">
      <stop
         style="stop-color:#000096;stop-opacity:1;"
         offset="0"
         id="stop4146-9-34-1-9" />
    </linearGradient>
    <linearGradient
       inkscape:collect="always"
       xlink:href="#linearGradient4144-9-9-0-8"
       id="linearGradient4720-1"
       gradientUnits="userSpaceOnUse"
       gradientTransform="translate(412.94943,146.58027)"
       x1="282.44623"
       y1="62.716148"
       x2="299.80951"
       y2="62.716148" />
    <linearGradient
       id="linearGradient4722-8"
       osb:paint="solid">
      <stop
         style="stop-color:#009600;stop-opacity:1;"
         offset="0"
         id="stop4724-4" />
    </linearGradient>
    <linearGradient
       y2="62.716148"
       x2="299.80951"
       y1="62.716148"
       x1="282.44623"
       gradientTransform="translate(412.94943,146.58027)"
       gradientUnits="userSpaceOnUse"
       id="linearGradient4728-9"
       xlink:href="#linearGradient4144-9-9-0-8"
       inkscape:collect="always" />
    <linearGradient
       inkscape:collect="always"
       xlink:href="#linearGradient4144-9-4"
       id="linearGradient4808"
       gradientUnits="userSpaceOnUse"
       gradientTransform="translate(229.30816,268.79078)"
       x1="282.44623"
       y1="62.716148"
       x2="277.26477"
       y2="60.569031" />
    <linearGradient
       inkscape:collect="always"
       xlink:href="#linearGradient4144-9-9-0-3"
       id="linearGradient4816"
       gradientUnits="userSpaceOnUse"
       gradientTransform="translate(228.668,369.16206)"
       x1="282.44623"
       y1="62.716148"
       x2="299.80951"
       y2="62.716148" />
    <linearGradient
       inkscape:collect="always"
       xlink:href="#linearGradient4144-9-9-0-8"
       id="linearGradient4824"
       gradientUnits="userSpaceOnUse"
       gradientTransform="translate(527.67265,349.26148)"
       x1="282.44623"
       y1="62.716148"
       x2="299.80951"
       y2="62.716148" />
    <linearGradient
       y2="229.74155"
       x2="402.58447"
       y1="229.74155"
       x1="1.0735587"
       gradientTransform="matrix(0.98306913,0,0,1.1373431,2.2160854,154.21821)"
       gradientUnits="userSpaceOnUse"
       id="linearGradient3903-1"
       xlink:href="#linearGradient3844-67-2"
       inkscape:collect="always" />
    <linearGradient
       id="linearGradient3844-67-2"
       osb:paint="solid">
      <stop
         style="stop-color:#000000;stop-opacity:0.45490196;"
         offset="0"
         id="stop3846-7-4" />
    </linearGradient>
    <linearGradient
       y2="229.74155"
       x2="402.58447"
       y1="229.74155"
       x1="1.0735587"
       gradientTransform="matrix(2.4741276,0,0,0.12372377,0.61537926,498.61012)"
       gradientUnits="userSpaceOnUse"
       id="linearGradient3157"
       xlink:href="#linearGradient3844-67-2"
       inkscape:collect="always" />
    <linearGradient
       inkscape:collect="always"
       xlink:href="#linearGradient4144-9-4-6"
       id="linearGradient4808-2"
       gradientUnits="userSpaceOnUse"
       gradientTransform="translate(229.30816,268.79078)"
       x1="282.44623"
       y1="62.716148"
       x2="277.26477"
       y2="60.569031" />
    <linearGradient
       id="linearGradient4144-9-4-6"
       osb:paint="solid">
      <stop
         style="stop-color:#000000;stop-opacity:1;"
         offset="0"
         id="stop4146-9-0-0" />
    </linearGradient>
    <linearGradient
       inkscape:collect="always"
       xlink:href="#linearGradient4144-9-4-6"
       id="linearGradient3955"
       gradientUnits="userSpaceOnUse"
       gradientTransform="translate(229.30816,268.79078)"
       x1="282.44623"
       y1="62.716148"
       x2="277.26477"
       y2="60.569031" />
    <linearGradient
       id="linearGradient3957"
       osb:paint="solid">
      <stop
         style="stop-color:#000096;stop-opacity:1;"
         offset="0"
         id="stop3959" />
    </linearGradient>
    <linearGradient
       y2="60.569031"
       x2="277.26477"
       y1="62.716148"
       x1="282.44623"
       gradientTransform="translate(229.30816,268.79078)"
       gradientUnits="userSpaceOnUse"
       id="linearGradient3963"
       xlink:href="#linearGradient4144-9-4-6"
       inkscape:collect="always" />
    <linearGradient
       inkscape:collect="always"
       xlink:href="#linearGradient4144-9-4-6"
       id="linearGradient4013"
       gradientUnits="userSpaceOnUse"
       gradientTransform="translate(200.62607,460.74148)"
       x1="282.44623"
       y1="62.716148"
       x2="277.26477"
       y2="60.569031" />
  </defs>
  <sodipodi:namedview
     pagecolor="#ffffff"
     bordercolor="#666666"
     borderopacity="1"
     objecttolerance="10"
     gridtolerance="10"
     guidetolerance="10"
     inkscape:pageopacity="0"
     inkscape:pageshadow="2"
     inkscape:window-width="1366"
     inkscape:window-height="702"
     id="namedview3041"
     showgrid="false"
     inkscape:zoom="0.93148148"
     inkscape:cx="416.73594"
     inkscape:cy="318.05322"
     inkscape:window-x="0"
     inkscape:window-y="27"
     inkscape:window-maximized="1"
     inkscape:current-layer="svg3039" />
  <image
     width="1002"
     height="540"
     xlink:href="data:image/png;base64,iVBORw0KGgoAAAANSUhEUgAAA+oAAAIcCAYAAABhIlRiAAAABHNCSVQICAgIfAhkiAAAIABJREFU eJzs3Xd4FFXbwOHfbEs2hXSSkEBCFRCQIoIFEESxoIDwKqKiImKhigo2RAQFBOlFkK5ieVVUFF/8 RAVFRYpK7y2BkErqZuvM90eSlZKQQsIu4bmvK9cks5OZc86endlnThmFQrt27TLt2bNngN1ufxyo D4QghBBCCCGEEEKIqnJa07SDJpNpcd26dZdce+21DgAFYN26dTGpqamrGzZs2Kpx48b4+fl5NqlC CCGEEEIIIcQVIC8vj3379rF///5tYWFhd992220nlSNHjvj+8ccfm+68884WgYGBnk6jEEIIIYQQ QghxxcnNzWXNmjV/t2nTpr2+Q4cOQ+vXr98/Pj4eTdM8nTYhhBBCCCGEEOKKYzKZsNlsUfv27UvT 2e32fk2aNJEgXQghhBBCCCGE8KBGjRpht9sfMABN/Pz8cLlcnk6TEEIIIYQQQghxxfL39wdoqgP8 pTVdCCGEEEIIIYTwCoEGAE3TpOu7EEIIIYQQQgjhBXSABOlCCCGEEEIIIYSXkBZ1IYQQQgghhBDC i0iLuhBCCCGEEEII4UXcLepCCCGEEEIIIYTwPGlRF0IIIYQQQgghvIjO0wkQQgghhBBCCCHEv6Tr uxBCCCGEEEII4UWk67sQQgghhBBCCFEONpsdm81e5vXlJY9nE0IIIYQQQgghyshmtzN87Ju4XCoj Bj7C1Y0aALBr/0FmLFqOXq9j5rhX8DGZKnwMaVEXQgghqokLXc/lWi+EEEJUHlVVsdrtTHl3Mbv2 H2TX/oNMeXcxVrsdVVUvev/Soi6EEEJ4KU3TmLXkfX7b+hd3delE/z49OZ2VzXPjJ5NvtTJu5BAa 1o1nzU8bWPfrbySnpRMUGEiD+DhGPvEoqqryzsKlHDhylNw8CxFhodx0XRvuvf1W9Hq9p7MnhBBC XJZMRiMvPDWQN2e/i0tVmTTvPRQ0NBT0Oh0vPDUQk9F4UTG2tKgLIYQQXkpRFAY/+iCREeF8++N6 duzdz3sffUqexcLDvXvQuEF9/tq1hxWffUl2Th5NGtTH38/MgSNHAdCAg0eP0ah+PW64tjUOp5PP vl3Lmp82eDRfQgghxOWuUb14Xhn6FAA2mw2b3YECvDL0KRrVi7/o/RuKfpFgXQghhPA+Br2eF556 nNFvTWHKgsXYbHZaN2vK3V0743Q6sdkLJqypE1OLXnfcRtOGDfD1MWG1WlGAZdMnk346kxOnkqkZ Hsrna75nx979dL/lZo/mSwghhLicuVwuHE4nCgU31jVNQwMcTicul+ui9y+PZxNCCCG8mKZp1KkV za0dbuR/P/8CwBMP3o/T6QTg+tYtyeiTxer/+5E3ps/Bx2Ti5uuv46Fe9+B0uXh7/iL+2rXnrH0W BfdCCCGEqJjdBw4ydcFSNMDHZKIoon57/iKef/IxmjZscFH7lzHqQgghhJc7mZzCz7//6b5jv+zT Lxg+4GEURSEjM4vON7Sj1+23cjTxBEs+/oy1638lLqYW2bm5/LVrDx3btaXn7beSlZ3NuOlzALlJ L4QQQlSUzW5n5uL3cakqep2OV4Y9DZrmHrM+c/H7zBz38kXN+i4t6kIIIYQXc7lczF76AVabjRED H+G7nzaw6a9/+GZdbe7u2pk//vqHFZ99SWhwEKHBwZxMTgagdq1o9hw8BEBSSgpbt+/g0LHjnsyK EEIIUW0YDHrMiokXnhpIw/g6QMH49CnvLqqUCVulRV0IIYTwYp988x2Hjh3nxrZtuL51SxrXr8ez 4yby0VffEh8bQ8O6cTRv3IgjCYkkJiURExXFvXfcRqN68cTXjmX3gUP8vWsPB44co26dWHx9fAC5 SS+EEEJUlMloZN5brxf8oWnu4WgN4uuwYPJ4AFxO50Vda5WVK1dq3bp1w3QRzfJCCCGEqBomkwmT yYTT6cRqtaLT6TCbzSiKQn5+vnsbnU4HFATgdrsdp9OJoij4+vqSl5+PgoK/X8H/qarq/l8hhBBC lJ+iKMD5N75LWl8eq1evlq7vQgghhDez2+3Yz5j8TVVV8vLyztqmpKBb0zTy8/PRF35psFgsVZdQ IYQQ4gpSUgxdWbG1dH0XQgghqjm5xgshhBCXF52nEyCEEEIIIYQQQoh/SYu6EEIIIYQQQgjhRXQg XeKEEEIIIYQQQghvIS3qQgghhBBCCCGEF5EWdSGEEEIIIYQQwotIi7oQQgghhBBCCOFFpEVdCCGE EEIIIYTwIgYAs9kswboQQgghhBBCCOEF5DnqQgghhBBCCCGEF3GPURdCCCGEEEIIIYTnSYu6EEII IYQQQgjhRSRQF0IIIYQQQgghvIgE6kIIIYQQQgghhBeRQF0IIYQQQgghhPAiEqgLIYQQQgghhBBe RAJ1IYQQQgghhBDCi0igLoQQQgghhBBCeBEJ1IUQQgghhBBCCC8igboQQgghhBBCCOFFJFAXQggh hBBCCCG8iATqQgghhBBCCCGEFzF4OgEX4nK5yM/Px2QykW+1Yvb1dS8t+fn4mc3FLs2+vuTnWzGb fbHb7ZjNZgwGr86qEEIIIYQQQggBgL53796vN2jQwNPpOM+uXbt4+pmniImJZcCYpTSN9efRV5e4 l1eXtqxdsIw0W3ny6Se5psU11KpVy9PZEkJUM6mZJ9iX8Bdb9v/Ihp1f8f2Wj/h15zfsOraJk+lH yMnPREEh0C/Y00kVpbA77Bw9fpgDh/Zy7PhREhKPcjzhKMcTj3Is4QgnkxJJT08jNzcXh8uBn9kP RVE8nWxRTRzP3Mm8TYPYcuIbogLrEmKO9nSShBBCeMihQ4dQVq5cqXXr1s3TaTmLpmn0urcnr7z8 KkuWLWXc2NeZ+/EPDO7btdzLYSOeZdDAx3np5ZfY9McmT2dNCFENaJpGvj2XLft/ZH/CX2Tb03Ao VmzOXFyqHQC93oSPzh8Dvvjpg7iqdmvaNOxMoF8IOkVGHXmjA4f2ER4WTt34+uh0579HLpcTh9OJ 3W4j6dRJ9h/YS734hkRFRkvALspM0zQOHz1AZtbps9Z/cPwZ7u7wML+cWEH+4SDuiRyHwWBA0zQ0 TSMsJJwG9a+SuiaEEFeAtWvXem+LekR4BB9/8jFNmzQlOzuTkU8/yoYN6xn6eL8yL7/77ltqBAby xZdfMeDRR2nWrJmns+WVEhISGDGgOzUi4hk74gGCo+ozbuQDBEc1YOqYQbTtcDv+/v6eTqYQXsHh tJGcmcDGXWvYfHAtp3IP4TLlExDkS1hYONFRMYSHR2D280XV28m2pZOSeZzkjEQsVgs+RjP+vjXQ 62U4jrfZs28n7a+7EZvdht1uw2azYrXmk2+1YMnPxWq14nI5MRmNhIfVpH69hpxKPsmuPTuIqhmN Xq/3dBaElysK0msE1aBFs9bUi69P3fj61Iuvz/KtL9G73RBSzdvYs38XgzpNpWmTq4mPq0ed2nWx O20kJCYQFhouwboQQlRzhw4d8t7J5GbNnsmgJwbxx+ZN9OrVm9WrV9OjR89yLXv16s0vG39j6OBn eOutNz2dJa/1+siHeWPGSrb9/iNvzvkvf/66lnEzPuG3n75lxNh5jB3el9zcXE8nUwiP0zSN1KyT /LrzGz77bTY5WjKxdaOJqxtHWHg4gYE1MBgNGIwGAgICCQ0NpXZcLPWuqku+PoMvN73L+u2rSMo4 hqZpns6OOIfD4URRFJxOBy6XC5fqQtVUNFVF0zRcqgub3UZmTiYHj+wnJzeHli1a07RxMzZt+Q2X y+XpLAgvd+TYQSLCI6gTG4/T4cDusONwOnC6nO5tikLwvLxcbDYr+dZ8bHYrMdG1iaxZk737d3sm 8UIIIS4prw3UhwweysKFC+j7n/tZtepzOnfuzHtLFtCpU6cyLTt37syqVZ/Tr+/9zJk3j1GjRns6 S16r31Nj+GjZPG65szfvTHiB27rfz/S3RnNHz34smTeZwa/M4rkBd7Bhwwaeuq8Dv/zyC0/37cCv v/7K4H4d+f333/n5f597OhtCVLl8ey5bD/zMt1uX0LRZE6LjwtH5qKiaA5fqwGLPItd2mlxrBnm2 09hdVpwuGy4ln8g6oTRt1pjfDnzDpr3fk2fN9nR2xDkKAm0NVVVRVRVN1dA0tbDrccE2SuGPn9nM gYP7UBSF+vUaEBcbz+atf8gNGHFB6RlpmHxMZOdkYrXn43DYcbqcqKp63rZ6vR5Fp0MBVNVFniUH s58fySmnLn3ChRBCXHJe2/dy+oxpTJo4mWEjRvDL+vWsW7eOJwc+zddff13mZa9evWl3w41MmTSR J54YyEMPPeTpbHml5bNeZey0D5j99is88tRolr87+azlh4umM3L8It5f+A7Dxy3k/YVTGTLmXVYs mMJTL81l2dw36fPIcE9nQ4gqt2X/j/xz9GfCI8Mw+LnItmUQQAgaGgWRnIbqDtT+/dup2sm2phNo DiWsZhB7k/4kdE9Nura+34O5KZtNmzbRrl07TyfjknC5nGjAz3sycblcuN/Jwve0aKywAigKnErM 4bq2GjpFoVmza0g/nUFqWio1I2p6KgvCy6mqio/Jl8NHD6FTFBRFQVF0KLrzu7IfOXqY7JyCulhw 88hFfFy9YoN6IYQQ1Y/XBupDhwxj4XsLGDliBKtWfc5DD/Vn9erV3HPPPWVefvDBCl4Y+Syz585h 9OgXPZ0lr/XIsAksnTe52CD9y0Uvc/+gSaycPoT/PD2Vj2cO4/6np/Lp7BH0e3oqn80dSf+np7Lq 3eeJj19BdLTMUnupWK35HD12lCNHD5OSkkxAQABRkdG0bnUtZrPZ08mrdlIzT7A/YRsZ+ScJjQ3k VN5h/E1B2NV8XE4HFIZ12hnLohZZl+rCpTlJzjtKYEgkOUkp7Dm+havj2hEdFu+5TImzuJwuCu65 aPz3p4NomobdkoXOYMRgNBdE52goio5eHeuycUcKv2+dx82t4hjQ905qx9TmZNIJCdRFiVRVRafT 4XQ4iYmJwWg0otcbMBQzZ0VkRCShYSE4HA6sVisnk07idLokUBdCiCuE13Z9nzb9HQY98STvTJ9O r169Wbz0PW666SYWLJpfpuWSpYvo1as3U6ZNY8gzg5kwYbyns+S1ls18hf/0H3xekP75gpcYOu59 dv2ziZdmrL7g8oWpXzJ/XH9PZ+WKkZ+fz6qvvsBkMnLH7XcxbOizPNSvP40bN+HzVZ+SmJjg6SRW OwmpB0m3JIGvHZcxj2xbKk6s2LVcrFpWwQ9Z2Ip+itZp2di0bFzkk2NPw6HLAR87WfYUDp+Ssabe xOUOgDR8fH3wNftSIywSgx7yTx/HZDJgyz6FXlew3d1druGGto05diqFBcs/oUZQECeTTnguA8Lr qaqKotPhdDrR6w0oKKBRbPCdnZNNVlYWWdlZ5OblYsm34Cqhm7wQQojqx2sD9eHDRvDuwnd5fuRI Vq36nCcef5LffvuNpwcNLtNy4OODWLXqc0Y99xxz5s/lxRdf8nSWvNI/m35kxNi5fDL7Wfo/OYr/ zn2O/k+O4vP5oxjy+jL+9/Un3N69D8sXTqPbXb1LXK5cOpuegyZ7OjtXBJfLxfc/fMddd3anRfNr cDhtHD52kLSMFGrXrs3jAwbx84YfybPkeTqp1cqJtEPka9kY/RTyXZmgd2AnFxs52MnBruRgJxu7 koONbPfv9qLXyUVV7OS7stCZNezkcTR5j6ezJc5w5mRwvr4++PmZCarhh15xYdDr0By5+JrNBNQI RlEUfvoriW+3nOakoxZBtZui1+nJysqUQEqUSFVVdEpBoJ6Ys4vXfuzKW+t78MvRledtuyV1FW/+ 0Y35/zzGwfTNWCyWEsezCyGEqH68tuv71KlTmDFjJsOffZZfN2zgm2++KVe396JZ36+/6SYmv/UW /R7sx8CBAz2dLe/jG8a2Dd8wZva3fPHJsoLlp8t5ZebXfPrhQu7q+SCfrJjLfx56mk/fn1fist9j w3hzRE9aL/3J0zm67KWnp/HDj9+jqipOZ8HkVi6Xyz1OVlVVbu16GzG1Yjhy/CB2hx1/vwBUTeVo wmHiYuvS/a672bptMx1vutmjealOTmUex+I8jSFQw6ZY0JvAruSgYUOv6EDRQCkYv4yioRZ2oVYL x6k7FDt6E7gUK0ZTALb8HBLTDno6W+IMZwbqZrMP9aNrUDvcjx0hAWzduI78zGRim7QFCnrB33FD /bP+Pzw8HEXRy4RyokRFXd8dDicfbR9LtxvuJdAnlG83Lz5v24PK9zxyx0iOZe1g3W8Laa8MRqfo JFAXQogrhFcG6pqm8eyzI1mwoKBF/eOPV9K3bz+WL19Kr169y7z8+OOVvDByJHPnzeXll172dLa8 0vvThvPiO5+xdN5k+jz8zHnLT5fPKdNy1SdL6fO0tKhfLE3T+N/aNfS9vx8WiwW7w4HRWDB+0WAo +PHz80PR6TiWeBSHw4HZ148Av0C+XfMtquZCd5OeuNp1Wfv9Wk9np1pJy0zCpuZiNhuwqFb0JgVN b8ept+PSKeh0SsEQ5sI5obTC+eU0VUNVNHQK6BUFVbNjMGjkaRZOZcgQBW/icv77iKykvb+RsD3f /bc9LwdF0ZO4fR16ow+6Jnfxv42HSEzJJjo8kO4dGoACdofNE0kXlwl3i7rDiVN1kGo7iMXHh34d R/HL3lXu7W5qcTsdG/dhb/5aDuZsQVN9yLflYzQaJVAXQogrhFd2fVcUhSlT3mbQoCeZM3cOvr5+ 3NSxI4qiv+ASdNzYsUPBskMHfHzMzJozm8HPDGbcuHGezpZX+s8zk1n10SLuffApPlk2p8LLPv0G 8tHs5z2dncueoij4mn1JTUshIfE4CQnHSEw8TnLyKdLSUjl9OoPMrNPsP7CX3JwcnE4XNQKDSElJ wd/PH4POQELCMUxGE7m5OdKyV9kUF+hU9EYFvVHBYFQwGHUYTDoMJgWDj4LRR4fBR4fRR4fRpBS+ pnP/j84A6FU0Rb5se5szW9T73nsnD/XtzUN9+/Bw3z4MGvgYTzzen4cf6EO/Pveg1+m5q0Mjnux9 Lfd0aoROp0NBKZiQTogSFLWoW61Wmmg9+OGXtfxzeCNb8j6g3VW3ubcLrWNkS+77bD/8Gwf/OkVs Tmc0DYxGkwTqQghxhfDqFvX5785n1AujmDV7Jq+9+mqZlmNfHcPMWTN47dVXmTFzBi+OGs3ceXN5 9dVXPZ0tr/ThrOcZP+8bls2fzH2PDOWTZbMqtPx85WLue0Za1CtDt1vvYPU3X9H1lltJS0vjtz82 0v3Ou9mxcwe5uTn85z/343S6SE9Pxel0YbPmU6dOHFu2bkbToG58fewOOwEBASjK+Y/8ERUTEhhB eq4ZhzMfo58RFDt6ow6dXkGnB51eQdHhLnNN09BcoKqgOsGlFHSX1mtGnPlO9IofIUFRHs6VOJOz MFBXFIWv1+8nKS2nTP9XK6IGPTpdBZwd7AtxroIhTU7aXnstDuc1XJ3Rmvd3Pk/W6X+wNMsk3Kcu AGnWIxzYnYgrNZg+0e8Q4RdHZM2a0qIuhBBXEK8M1BVFYfLbk5k/bz5vjB/HhPFv8tnnnzJj+kwW L32Pae9MZ9GShUyd8g7vLVrI5Elv897ihUx8axIT3hxP/4cf4ZVXX2HUC6OYOOktJox/k549ezJ4 8GBPZ83r3P/MJFZ9vIQ+Dw/m46Uzue+RoRVaPvr0aF59+m6uv/5XT2fpshcQEMitt97Omu9WYzSa uPP27nz/w1ri4+ricNhZtHghVze9mvr1GpKekYbD6STfaqHHPT3Js+QSGhJOUtJJoiLlUXmVqVZY PRKtO7DZczEHm1DJL2gl1yvoDAUt5TpdYTQOoGmoroIflw5QFBRUTBixZWuYFD/q1LzKo3kSZ3O5 XKCAoujocXPjwvkGFNy3uwrf23Nvf53Zb8Upgbq4ANWl4nQ5OXjoIBs3biTxxAl0XE9WzB9szdpD /abZoMGhPSdwHYrB90hLvmM99evXp8vNnYmPl+eoCyHElcIrA3VN03hu5HO8++58hg0dzseffsTY Ma+z5rtveXvSVFav/ppZM+bwxRefM3PGLD77/L/MnjmHz7/4jBdHv8T4CeOY8vYUZs6awZDBQ5k7 bw5jxozxdLa80vszRzH5vTUsmjWB+x4dxsdLZlRouXLJLB4YMsnT2ak2wsPCefCB/iiKgk6n4+EH HwUKWmNsNhtrv1+Dr4+Z6OhofHx8sVrzcTidhASHoWka33y7mh739PJsJqqZWmHxmE8GkZ13nEC9 EQM6FD3ojAp6Q8GPTg+KTkEDNFVBcaqFLewamqahaHoMmpFciwt/LZC4SAnUvYnL6UIpeGAWX63f x8nU7PO2WfN2n/PW2ey2ggkJAJfLed7rQhRRVRWX04mmqLS7/jrauV+5v2CRUbC4OQqIAm78938d qr3ER7kJIYSofrwyUFcUhUmTJ/HewvcYP+EN3p48hW/WrKbLzbcwdPhgBjw6kEFPPsHEtyYxa84M +t7Xj4WLFvD0k8/wcP8HeerJZ5g2/R2ef+4FRr84ircnT6FHjx4MGzbM01nzOv2GTOSjpbPp038I Hy+Zzn2PDq/Q8oHHR/LGiPu46abfPJ2lakOv15+3TqfTYTabufXW2/nq61VkZmfRsGEDYmrFotcb OHnyJP9bu4YON92Mv5+/B1JdfcWE1SPIGE3i6V2oNj0GfxPoHQXd3g2KO2DX6Qufi+zScKEDVDQN 9CqgGdEsepw5GoHmmtSNauLpbIkzuFyFAZCi0PPmxgU3WYpa1JWiEJ6zhpRomoZep3PPByFj1MWF qKqK0+UiIyOD1i3bEBAYiNFgxGg0FS6NADgcDhxOBw6HHYfTQW5ODtv+3orD4ZBAXQghrhBeGahr msbzzz3PvPlzGTZ0OO8umMesmXOYv3AOjzz8GC+/8hLjXn+DDz96n/v/8wCffvYJj/Z/jC+/+pKB jw/izbcmMHzYCObNn8uoF0YzZ+5sxo4d6+lseaWP54/lpbdX8NHiaYVB9wz6DhjBJ0tncP9jZyyX zeT+R4eftb5o+/sfG87yeRN5eLiMUb9U/P386dWjN0eOHGLLli2sSfmWGjWCiKwZSc8evfEz+3k6 idVOdFg8Teu0JTn3ICmH9hPTKgCHko2iqOh0BQG6Xl8QsKMV9JLWVA1VLZgNXlEUTDp/UhJs1FDq 0jTuOmpHNPR0tsQZXOq/reFf/rz3rBb1mJpB3NvlaqDgGqUoyr+TNZ4RuMsYdXEhqqricjnJysrG ZrNhs9k4cuQwhw4fokH9hsTHxwOcsa4B8fEF49azsrJxOB2oLgnUhRDiSuCVgbqiKEycNJEli5fw 1sQ3eWPceL786gv6P/gYw58dxrChw5kzdxbT3pnBhx9/wKMPP8YXqz7nkf6P0rvPvQwbOpxZs2cy etSLvPTyi+4x6tKifjan00n/4RNZNHMcA4aO4dPlc+g3cCSfLp9Lv4HP8d8V83lo0At8umIeDz3x PJ+smMuDTzzPx8vm8MDjI/lk2WweePxZVi6eTq+HBrN0xqvceOON6HRe+TCBasdsNtO0aTOaNm3m 6aRcMdo07EyWJYP/btqJX02NoFhfdIoTRXOCqqFqCooKFD6WTdNAQUGv6NHjQ2ayjdNJTto37cT1 Te/wdHbEOQpawwuC7543Nz6vNV0rfK2oRb0oWFdV9Yyu7xKoi5IVTSaXlZXlXnfo8GEe6PsQH658 n+07trvX3/ef+/li1ednBOpZOBx2aVEXQogrhFcG6gCjR41mytQpvPD8KObMncWypStYtmIJgwY+ yey5sxj89BBWfLiMx/o/zuerPqPvfQ/w+Ref8+Sgp3hn2lSGDxvBuwvm88Lzo5g9d5a0qJ9D0wrG zG759X/c0WcgHyx8mwcef473F7xN3wHPsuLdyfQd8CzL5k08a7l8/iT6DnjWvd0HC6dw/2MjmPb6 EJ4ePQWr1YrZbJbZxkW1ZDYF0iiqNe3jerBp55dYMvWE1TNgDjWCTkNDoyhO01QduACnDmeuQuoB G1knnFwV1JH40BboXEZcLlexQxyE56iqRuemIe5W8zN/iqaRczgcZ//PGcG5TCYnLqSgRd1Fdta/ vTUaX9WE8LAInnj8SWw2q3t9bm7OWUF5dla2dH0XQogriFc2fSqKgo+PD7169mLa9GkMfHwQX365 iscfe4LUtBRWfvARSadOMmLoSH5e/zMDBzzB99+vpcc9PZg2/R1eeH4UC99bwLChw5n/7nyeeWow EyZM8HS2vI7VauWe+wawZM4Erru5J68MvZ+2ne4p9/LVYX3pM2AUp5JOYjAY5NndotrSVI2wgFpc G387bcJ7YUipRco/Kqd22Mk46iL7lIo1C6xZkJOscvqoi1O7bCRuc+BICKGx+Tauie5KsE8UDodT PitexOFwEB0dw46d2/H3CyAwoAYB/oH4+wXgZ/bH7OuH2dcMgMFgcP8A+Pqa8fU1c+DgfmqG18Tp lAnlxPlSU1NRVRW9Xn9Wi3puXi7f/9//eG/xAhYu+vfnk/9+QlxcnHu7rKwsXC4XqqqSmprqiSwI IYS4hLy2Rf3+++9n3rx53HnHnUybPpWhQ4bTo2cPBj8zmB4972HI4KHc0/Nuhg4exu133MbQIcO5 q/udDBk8lJ49ezJ27Fi6devG2LFj6dOnD++//z7Z2dnUqFHD01nzGmazmby8PF6b9C7btm1j/MyP 2L17d4WWJ0+e5LrrrnO3QglRHel0Osw+/sRGNKCD4kfA4WCOpO4gL/EUeRm5qL55KCY7AJrdAPn+ 6PL8CbCHUCfkaprVvonIsBhqBARjMpnks+IlNE0jPT2dAL8Avv9+LR9+9EHBzNwaFM3YX/DrGUv3 awVLRVGIiKhJfJ26pKSkEBMTI8OAxFnS0tIw6A2s+e5bss5oUY+rU4e8vDxatWx11vaKosPf/9/5 RrKysvnq6y8xGU2kpaURERFxydIuhBDi0lNWrlypdevWzdPpKNbp06e0Fkd0AAAgAElEQVQ5fvw4 0dHRJCUlXdQyOTmZRo0a4ePj4+lseQ1VVdE0DavVitFoxG63YzKZKrT08fFB0zSMRqMEH6Jaczqd 5Ofnk5OTQ15eHgkphzieuo9TWUdJtySSY0kDwOwTRKg5hpoBdYgOqUdcZCP8/PwICAggKCgIX1/f yyKQ27RpE+3atSt9w8uc3W4nKSnpolvD9Xp94WMT5VojzpaamsqpU6fQNI0PVq4gO/v8x/9dSI0a NXioX8FjO6OioiRQF0KIamzt2rXeHaiLqlfZXW8lSBdXElVVsdvtWK1W7HY7NpvNPX5ZURRMJpP7 x9fX97JsRb9SAnWovOdTXw43YIQQQgjhvdauXeu9Xd/FpXG5BQ1CeBOdToevry++vr6eToqoBBJg CyGEEMJbyLcSIYQQQgghhBDCi0igLoQQQgghhBBCeBEJ1IUQQgghhBBCCC8igboQQgghhBBCCOFF JFAXQgghhBBCCCG8iATqQgghhBBCCCGEF5FAXQghhBBCCCGE8CISqAshhBBCCCGEEF7kogJ1p9NJ Xl4eLperstIjxCWVl5dHQmIiVqvV00kpl8s13VVJykRUFalb4mJI/RFCCFERhor8U15eHrt37yYj I8O9LiwsjCZNmuDv719piSsrh8PB0aNHSU5Oxmq1YjKZCAsLo169epjN5kuensqwfv16IiIiaNq0 aZUeJzU1lb/++ovrr7+ewMDAYrepjuWbkJjI9Nlz2L5jJwCKotCyRQuGD3mG2JgYD6euZJc63RaL hc9WfcmN17enfr16lb7/yuCJ93LTn5sZ88Z45s+aUWK55OTm8tkXq/hl42+kpqUSHBRM61Yt6fuf PkRHRVVJurxJ1zu7X/D1iePH0bZNmyo7fmpaGg/0f5TXXn6JjjfdWKF9XGzdqow0lMZbPqP9HnmM tPR099/BQUE0bFCfe3v2oE2rVh5JU1WXf2nngcuh/lREafke9+ZETiadZMGc2R5InRBCVB8VCtT/ /vtvNE3jxhtvpEaNGmRnZ5OQkEBYWBgOh+OStrDbbDb+/PNPHA4HcXFxBAcHY7PZOHz4ML///jtt 27YtMQD1diaTCX9/f/Ly8qr0OJqmUaNGDXQ63XnvXXUsX03TeH3CWzidTsaPfY2oyJocT0hkw68b CQkO9nTySlRZ6V7+wYccT0hkzEujS12fZ7Gw4sOVRNas6ZWBuqfeSw0NVVVLfD09PYORo0eTlZXN nbd3IzYmhvSMDP73/f+xfsMvTJownsZXNaqy9HmDV0aPcv/+zXffcfToMYY8/ZR7Xf26dT2RrDLz xvOEN39GVVWlRbNm3H7brWiaRlZ2Nht//53Rr4zh6ScG0rtXT4+lrapc6DxwudSfiijt/FdVxxVC iCtNuQN1m81Gbm4uLVu2JCYmBovFQlBQEKGhoRgMBmw2m3tbTdNwOBwYjUYURSnXcZxOJzqdDp3u wr3zd+3ahdVqpXPnzkRERGCz2XC5XMTExPDzzz/zzz//0KlTp3LdPCjrsb1ZaWVvt9vLVCbVsXxP Z2Zy7Phxnh70BNe3uw6AuvHxdOpwU7HbWywWjEYjRqOxUo5f0f1VVroTEhM5dvzYedsXtz4iPJwf 1nxz3raqqpKenkFISDAGw/mnEUt+PgoKZrNvsWmz2WyYTKZynxfOVdnvZWn5ysrKIj/fiqZdOF3T Z88hOSWVaZMn0bRJY/f6O7rdxjPDRjBh8mSWv7cQvV5fxpxWfj2sap07dXT/vu3vvzl1KvmsdeVR Wn0q7fXzti9DWVb1eaK07YuGlgUFBbnXleczWprS6npFxMbG0LVLZ/ffvXv24M3Jb7Ng8RKuu/Za ateOrZTjFKcy8+N0OsnNzSUgIKDC54HLpf6UZ59lPf+d62KPa7FYyM+3EhYWChS816lpaUSEhxf7 PaKyri9CCOFp5b6amUwmfHx8OHLkCCEhIZhMJgBcLhd2u9293ebNmzl9+jSapqEoCnXq1KFx48bs 3r2b5ORkOnXq5D7BHjx4kISEBDp27IjNZmPHjh1kZmaiKArR0dE0bdq02C+0VquV1NRU4uLiqFmz JtnZ2TidTvfrDRs2ZMeOHe4W6Q0bNtCsWTNq1aoFwPHjx9m7dy9dunTBYDBgsVhKPLbVamX9+vXU qVOHlJQUbDYb/v7+OBwOOnXq5L4gpKamsm3bNjp06ICfn195i7dMnE4n+/fvJzU1FZfLRVBQEFdd dRUBAQEXLHsouODt3LmT06dPA1zwQlZdyzckOJjQ0FC+W7uWVtdcQ7268cVudzIpiUlT32HP3n3o dDq63NyJ4YOfwdfX190lsUf37mz8/XcyTp+mUcMGJCensHL5UvcXjqXvf8A3a75j5bIlpGdklGt/ c2dMp2GD+pWa7scGPUVCYiLwb9fk5Yve49XXxxW73mQy8uCjA3h+xHBatbyGB/o/ys0dO/DHn5ux Wq34+fnx0gvPu7+Ins7MZOqMmfy5eQuKotCwQX32HzjIe/PmEB8Xxw8//sSyDz7g1KlkfHx86H7H 7Tw96IkKvY+V/V5eKF8nTp5kyvQZ7Ny1G+CCgUBaejqbNm/m1lu6nBWkA4SHhTHg0UeYOn0Gf/39 D3Fxddzle1vXWwD46ptvmPvuQr745CMC/P3LXQ9rx8aSm5fLR8uXuc+xm/7czCuvj2P5ooXEFH4+ vUFuXh6Lly5j0+Yt5Ofn0/iqq3hy4ADi4+KA0uvThV4vbhjWhcryXJVRtyqyfXp6BjPmzGHz1m04 nU5iakXz+quv8MZbk0r9jN7W9ZYLlmlZ6nplUhSFAY/05+cNv/DDTz/xWP+HL5i+t6dN56+//2Hl 8qUoioKmaTwycBAGg4ElC+YDBUFYn34P0vPuu7mn+13lzk9pde75F19m+86dqKqKwWDgnrvu5OlB T6AoSrnOA5dL/YmpFV3qPsuT73OVdM0p7bhFdfX6dtfxx5+b0TSNZk2b0qJ5M778ejWW/HzCw8KY OH4cdeMLyrayry9CCOFp5W7SVBSFa665BpvNxk8//cSff/5JcnIy2jm3WENDQ2nXrh233XYbV199 NceOHSMzM5NatWpht9uxWCxAQcvviRMnqFWrFmFhYWzbtg2j0Ui3bt3o2rUr6enpJCQkFBtQFgWI kZGR2Gy2s4JIgODC7mXZ2dkYjUY0TcPPzw8fHx/3Npqmubcry7FtNhtNmjShffv2tGjRApvNdlYv gpMnTxISEkJsbNW0HGiaxtatW0lLS6N58+a0b98eg8HApk2bcDgcQMllr6oqf/31F6qqcsstt3DP PffQvHnzEo9VXctXURTGvDia7OwcBg0ewogXRrHh141n9QpwuVy8/Nrr+Pv5s2j+XGZMmcyfm7fw 4cefnLWv44kJ9H+oHy8+/xwP3HcfpzMz+ePPP4GCu/7f/98PdLjxBgwGQ7n3Fx4eVunpHjlsKC2a NaNmRAQTx49j4vhxhIWGlLi+KB9nfr4dDgdjXhzNovlziY+rw8w5c4GC93rMuDfIzMxkxtS3WTh3 Di2aNXP/7+EjR5k09R1uuv56liyYz4SxrxEeHl7h97Gy38uS8uV0Ohk7/k3sNjtzpk/jw2VL6P9g vxLTdOz4cfeXyuI0v/rqgvI4ehQ4v3w1DXe30orUw4ce6Et6egZ//fOP+/Xv1/3I1U2aeFWQrqoq r7z2Opu3bmPgY4/w4vPPoaoqw0Y+T2paWqn1qbTXz1XWsixSmXWrrNtrmsZr48eTkprGhLGvsWj+ XAY88gixMTFl+oyWVqZFSqrrVaFWdDRBNWpwLCGh1PR17dyZ1LQ0du/ZA8CBgwc5mZTE8YQEjick ABQG2FZuvaVLufNTlvJp1bIFr744mjnTp9Hv/vv44quv2fj7H+U+D1wu9ae0fZY33+eq6HGL+Pj4 MHfmdCaOH8fO3bvZsnUbkyaMZ/G781A1jcXLVgBVc30RQghPq1Df45CQEDp37swNN9yA0Wjk77// 5pdffiE7O9u9Tf369YmKikKn07kDNYvFQs2aNQkMDOTo0aOYTCYyMjKwWq00bNiQEydOkJeXR926 dXE6nVgsFgIDAzl16lSJd5eLFAWRTqeThMILelEAqGlaqd2sMzIyynTs+Ph46tevT0REBKGhofj5 +XHs2DGMRiNOp5OUlBT3PqrC6dOnyczM5Nprr6VevXoEBwfTsmVLNE3j1KlT6HS6Ess+NzeX3Nxc 2rRpQ2hoKC6Xq8zd7Kpb+TZvdjUrly9lzEuj0el0vPHWRB4eMJADBw8BsH3HThJPnKDLzZ2w2Wzo 9Xoa1K/P75v+PGs/XTt35s5u3ehycyduaN+O+Lg6fP/DOgD++ucfUtPSuLPbbRXaX3HjGC823c2b XU1oaAh+fmbatmlD2zZt8PX1LXF9cW5o355217UlPi6OG9q1Iy09HYvFwvYdO9m7bz/DnnmGq5s0 IT6uDs0Kg1IAnU6HoiikpKZitdloeU0L/nNvrwq+g5VXJqXla+fu3Rw9doxnnhxE46saEVmzZomt Y8C/3ULPuLeYm5fH6jXfoWkaer3unA1LVpF6c3PHDkRFRbrrYW5eHr/98Qfdbu1a6vEupe07d7Jr zx5GDBlMl5tvpt11bXnt5RdxqSqrv11Tan0q7fXzjlfGsjxTZdWtsqZh1+497Nt/gJHDhnJtm9bE x8XRqcNNGI3GMn1GSyvTIiXV9aqi1+tB00pNX8trWhAaGspP6zcA8NP6DVzVqCGhISFs+HWje12j Bg2oU7t2ufNTlvJ5sG9fOt50I7VjY2hf2Cp/+MiRcp8H4PKoP6XtsyL5PrcMKnLcIm3btKFRgwa0 bdOGkOBgGtSvT9MmjYmrU4cWza7maGGX+qq6vgghhCdVeCCXqqoEBgbSrl07LBYLGzZs4NChQ7Rt 2xan00lSUhL79+/HarW6u0mpqoperycmJoZ9+/bRunVrTpw4QY0aNQgPD2fnzoKZUf/88+wTta+v LyaTifz8/LPWF3VtTEtLI6pwFuXMzEz27t1LTk4OYWEFLZJnjtEqSdFFvaRjn8lut7tbeWvVqsWR I0e45pprSEpKAqBevXpntQJXpqJ0hoaGkpeX525F9/X1JTc3Fx8fHw4fPlxs2ReVX2BgIBaLBafT WWLrE1T/8jUYDHTq0IFOHTqwZ98+Xnz1Nd5dtIh3Jk3kZOGxJr8z7az/udAkQIqicOftt7Ng0WIy MzNZ+3/rqF+vLg0bNGDN/9aWe3+XKt0Xw7dw1n9V09zdGyMiim/FiI+rw6QJb7Bk+QqeGTaC+Lg4 Bj72CO2vu/gut5VdJmfm68SJkwBERtYsU1rqFI7D3b1nL3d26wbA3r37mLdgIbv37OH6du0AiKtT p9R9VbQe3n7rrXz0yadYhuTz8/oNKIpS4thYTzl5siBvcXH/loO/vz8R4eGcTEqiZkQEUHJ9Kq2+ nXe8Cn42KrNulbZ9UatxVFRkWbJ0/v5LKdPinFnXq0J6eganMzOJjY0tNX06nY4unTqy7qefeeqJ gfz8yy/c37s3iSdPsuHXX7m3Zw82bd7M448+UuLxLpSfspTPjz+v570lS0lNS8OvcF8ul6vc54Ei 3l5/SttnRfN9scctjtlsRkM7+2+14O+qvL4IIYSnXPQMMna7HYPBgJ+fH3a7HbPZzIkTJ9i+fTtN mzaladOmGI1GPvnk3+5MtWrVYv/+/Rw9epSUlBSaN29+Vutu9+7dz5tJvLgZRn19fQkPD+fYsWPE x8djNBoJDw+nffv2bN26lRMnTuDr60tUVBTphY+NKWnSs6KWibIeu0hMTAwHDx7k1KlTnDx5kujo aAwGA7m5uWUovfIrGpednZ3tTrPT6cRqtRIQEEBOTk6JZV+0fW5u7nnBcXGupPJtctVVxNSq5d5v eOFNiGXvLSjXI75u7dKZ95YsZfWa79j4228MGjgARVEqvL+qSLeiKLhc55d5SevLKqKwm+GBAwdp d13bYrdp06oVbVq14vCRo8yaO4/XJ7zFh0uXuCcJqgyV9V4WKfr/kyeT3Hm8kJoREVzbuhU//bye Ht2707BBfa5t05qpE99kzBvj+Wn9BsLCQmnTuhWZWVkAWG3FP1+5omm/restLP/gQzb8upH/W/cj N17f3iOPzryQ6OiCm3/HExLc5WqxWEhNS6NTxw6l1qey1DfAfTOyMj6DFa1bZU1D0c3PxBMnCKpR 47zXS/uMllaml5qmaXzw8ccAdO18M6czM0tN3y2dO/PZqi/55LPPSEtLp2OHm0hKSuLLr1fz2Rer cDgcdLm5U7nTAaWXz8FDh3jr7Sk8OfBxenS/C5PJxB09Clply3seKI431p/S9lkZ+a7IcSviUlxf hBDiUip3oG61Wtm0aRPBwcGEhISgKAoZGRlkZWXRpk0bdDqde1K5oKAgsrOzSUxMPCsYMxqNREZG smPHDvR6vbuFtKir86+//krDhg3x8fEhPz8fRVHcF6BzNW3alM2bN7Nx40bi4+Px9fXFZrO5Z6A3 Go1YLBZ0Oh0Gg4HExESCg4PJzMx0B5dAhY4N/waz27dvJz8/n+bNm+NwOC7YUl1Wubm5nDhx4qzW 49DQUIKDg9m8eTONGhU83un48ePodDoaNmxISkoKUHzZR0RE4Ofnx5YtW2jSpAl6vZ6MjIwLpqE6 lm9qahrDn3+Bpk0a06xwMrt/duxg/4EDPDt0CAAtmjcnKjKSN96ayKABA4iKiuTUqWRQFK5tXfIz gQMDA+lw440s/+BDTCYTt3TufFH7q4p0R0dF8cvG3/j+h3Xo9XraXdeWAH//YteXR5vWrYiKiuSd WbMZ9ewIIiNrsqtwrCnAvv0HOHLsGA3r18dkNFKvXl327NuHwVjx+4VV+V4WadnyGqIiI5k9/10G PzmI0NAQ93ORSzJi6BCefWE0L455jXt73E2t6FqczswkqEYQ2dk5+Pr4cvp0JmFhofiZzfz+xyba tmnDqVPJbPvrb/d+Kpr2mhERtGnVkmUr3ictPZ2H+z1QxhK9dK5p3pzGVzVixuy5DHikP35+fnz5 9WqMBgM97rqTGjVqXLA+lVbffAvnyvhnxw7MZl8aNmxQrrKsjLpV3jRc07wZUZGRTJ81m6cGDiQu rg4JCYlc06I5er2+1M9oaWXqKscjtSriZFISG37diKZpZOfk8MemTWzavIXH+j9MfFwcdWrXvmD6 ABrUr0ft2rEsXfEBbVq1IjQkhJDgYCLCw1nx4Up3F+iyOLf8r27S5ILHP3j4MADBwUFkZWfzx6Y/ 3cOsynseuFzqT2lpqMj571wVOW55VcX1RQghPK3cZzCHw0FAQAApKSmcOnUKRVEICAigffv21K1b l7y8PMLCwoiNjeX3338HCoLGc1tzYmNjSUpKonbt2phMJjIzM9Hr9bRu3Zp9+/axefNmoGCW+fj4 eKKiotzdvM9kNpu54YYbSEhIIDExEYvFgq+vL2FhYbRr146tW7fy999/06xZM5o0acKuXbv44Ycf 0Ol0RBR2rQRKPbbVWnyLFxS0+v7zzz+YzWZiYmIqrbU3OTmZ5OTks9Z17tyZNm3acPjwYfbs2YPT 6SQkJIQuXbpgNpsJCgoqseyL8rh7927++OMPAPfNlpJUx/LNzsmhdmwsv/72Oz9v+AVFUagdG8vY V16iw403FubblzfHjWXGnLm89NrYwmfNB9Lz7rtL/RLR/Y7b+fHnn+l0000EFJb9xeyvstPd8567 2b5zJzPnzqNWdDQtW7QgwN+/2PXlYTAYmDrxLd56ewovvTa24CZM6L8tGbl5uSxYtJicnBygoHfI iCGDi235Kauqfi8BfEwm3hw3lrenTeeFl18BoFnTphf83ERFRjJ/1gw++vS/rPnf96SlpxMWGkrz Zlfz3PBhzJgzl3cXLWLMSy8ybPAzvDNzFv0ffwKj0UjbNq3d+7mYtN/R7TbGT5xMWFgorVu1LEtx FqtdYVf9yqbT6Xhr3DjeW7qUBYsWY7PZaNq0CbOnvUNoYb25UH0qrb4FBgbSuVNHvv7mW35Y9yMr Fr9XrrKsjLpV3jT4+voy4fWxvDNjJi+OeQ0omIztzdfHUrt2bKmf0dLK9MwJ5arCtr/+dt9oCgwM pEH9eowf+5p7BvayvOeKonBrly4sWb6CzoUt54qicHPHDvz3i1Xcekvn4g9ejOLK/0LHvzY4mFtv 6cLkqQXdsa9q1JBa0dFA+c8Dl0v9CQsLveA+K3L+O1dFjlteVXF9EUIIT1NWrlypdSscR1lWer0e s9mMy+XCZDKh1+txuVzk5+ef9Yg2vV6PyWTCbDbjdDpRFAW73e4eK20wGKhRowY2m809w3jR//n6 +qJpmntptVrPG6N+Jp1O5x7vrNPpUFUVp9NJTk4O/v7+6HQ6cnNz0ev16HQ69zq73Y7JZHI/zuxC xy6anC0vL++sVm6Xy8W6deto3LgxLVq0ILOwe9/FCg4OLnaStqysLFRVxc/Pz/2c9KIJ2oq6nl+o 7IteMxgM7knaDAYDWVlZJXZdr47lq6oqp09nEhAYgM8FhgLY7HbyLRaCgoIq5bmsF7s/T6W7PHLz 8tDr9GzavJkJkybzwZLFREVFoqoqmVlZOJ1OIsLDKy1dl6pMis5T5e1GXvSoxCI5OTkoOp37Ro7V aiUtPZ3ImjVLnOCxvGm32Wx0v7cP9/W+lycGPFau9HqbkupTaa9rmkZaejohwWc/W7s8ZXmxdaui aSiagyS4iuaXuFKUVP4XknH6NJqqERpa/I3s8pwHLqf6U5Z9QvnPfxd73LKqquuLEEJ4wtq1ays2 Rt3lcrlbNW02G5qmFdsV2eVyuR+vVdw4ZKfTWWzXa5fLRV5eHoqiYLVaLziGuYiqqlgslvNmelUU 5awA3+VyoaoqOTk5xQalFzq2qqrFpjcjIwNN06hbt+5ZNyouVmkB6Zk3N851obIvuqly5qztpamO 5avT6co0ds3HZLrgF6zyutj9eSrd5VEUgB48dAiDweCe8Eun0xEaElLpx7tUZVLRL6jnfmE8d54G X1/fUsdpljftf2/fgaZp7uezX85Kqk+lva4oSrHjastTlhdbtyqaBm+bU+ByVVL5X0hp56jyvDeX U/3xVJ2srGtVVV1fhBDCUy568E5pQXRZguySlHQDoCL7OffvklqOK3LsEydOEBwcTFBQEFmFk0N5 g9LKvjLKtrj9XCnlK863Zes2snOyiY2NZf/+A6z66mu633lHweOZxCX13dq1XNWoYZlml/dWpdUn qW9CCCGEqK5klo2LZLPZSElJoWXLljidzlIDVFE+Ur6Xl4OHDrF23ToSEhIJDQ2lV88ePPxAX08n 64qTcfo0v2/6k8FPDvJ0Ui5KafVJ6psQQgghqqsKjVEX/3K5XNjtdveEaFX1/PQrlZTv5alo3gPh Gfn5VtLS0oiMrFmmRzF6u9Lqk9Q3IYQQQlQnFR6jLv6l1+vx8/MjNzf3orr5i+JJ+V6eJGjyLLPZ l9q1Yz2djEpTWn2S+iaEEEKI6ka+3VSCsozJFhUn5SuEEEIIIYS4kpz/7C8hhBBCCCGEEEJ4jATq QgghhBBCCCGEF5FAXQghhBBCCCGE8CISqAshhBBCCCGEEF5EAnUhhBBCCCGEEMKLSKAuhBBCCCGE EEJ4EQnUhRBCCCGEEEIILyKBuhBCCCGEEEII4UUkUBdCCCGEEEIIIbyIBOpCCCGEEEIIIYQXkUBd CCGEEEIIIYTwIhKoCyGEEEIIIYQQXkQCdSGEEEIIIYQQwotIoC6EEEIIIYQQQngRg6cTIIQQonpx OBz8tf0vLPkWAPzMflV2LA2tMnd2SVRqmi+VCiTZ4/m8LIv5Aon24vx4/L2uAE27/NLszcVcUnle jnXD0ypUN6WYS1Spn3Wl8nZ1Lj+zH5Z8C35mP1q1aAVIoH5RNE0jOTWZpFNJ7i+kQghRnfmZ/YiO iiYyIhJFKf6KtXP3TmJjYi9xyoQQQgghLn87d+8EJFC/KMmpyaRnpNOiWQvCQsM8nRwhhKhy6Rnp 7N2/F4ComlHFbmO1WWnWtNmlTJYQQgghRLVw7PgxQAL1i5J0KokWzVoQVCMIu93u6eQIIUSVC6oR RONGjdm+c3uJgboQQgghhLg4EqhfBEu+hbDQMGw2m6eTIoQQl4TL5SIsNEyG+wghhBBCVCEJ1C+S pmmX54QkQghRQXLOE0IIIYSoWhKoX4SiiZTkS6sQ4kpT0kRyQgghhBDi4kmgfpGkRV0IcaWRc54Q QgghRNWSQP0iKChomoaqqp5OihBCXDKapqFU5cNEhRBCCCGucBKoXwxFWtSFEFceTdOQOF0IIYQQ oupIoH4RilrUJVAXQlxJpEVdCCGEEKJqSaBeCap7oJ6Xl0fG6dNEhIfj6+vr6eQIIYQQQgghRLXm DtT7PvwIaenpAOj1eiIiwrnu2mt58vEB+Pj4XPKEdb2z+wVfnzh+HG3btLlEqSlBNe/6npCYyPTZ c9i+YydQMMtzyxYtGD7kGWJjYqr02P0eecxdHwGCg4Jo2KA+9/bsQZtWrar02EKIC5Ou70IIIYQQ VeusFvVWLa/hjttuw+FwcPjIEb5b+z25uXm8POr5SjnY8g8+5HhCImNeGl3qtq+MHuX+/ZvvvuPo 0WMMefop97r6detWSpouhie6vi//4EMSEhN59cXSy/BiaJrG6xPexOl0Mf61MURG1iQhMZENv24k OCioyvOsqiotmjXj9tu6oqoaWdnZ/Pb7H4x+ZQxPPTGQ3j17lLqPS1VWQlxOFi1ZQER4BF27dsPf z9+9Pj8/n/9bt5aUlGQGDnjygvuQru9CCCGEEFXrrEA9plYtutzcyf13cHAwS5avYOSwIZXS5Tkh MZFjx4+VadvOnTq6f9/299+cOpV81rrKZLFYMBqNGI3G8v2jUhBQVjRoVVWV9IwMQoJDMBj0Z73m dLrIzc0lICDgrNcSEk9w9NjxMh/TYrGQb7USFhrqPmZqWhoR/x3039QAACAASURBVM/encdFdd/7 H38PwzagLAKyKYq7AgquuCRGE7fsyc3WZk/TNm2zNWmbpNnTX5o0S+9t0jTNUrM01Wibm7Qxi1bN 1bgbcQFFguCKArIM27DP/P4gMxUFhkGGGfD1fDzyCMycOedzvufMyHu+3/M9kZHy8fFp93Vl5eU6 fOSo7vrhnZo2dYokaeiQITpv5kxJZw73b2pqVk1NtUJDQzu1H51pg/j4OM294ALH71dfcbl++8JL evMvizVl0kQNHjSow2101FbO6gL6quiB0SoqLtJnn3+qSxZdpqCgINXX1+nzL1eovLxMAwdGO/18 sVqt9KgDAAC4UYfXqDc2NkqS7H+zVdfU6C/vvKut279RbW2txowerR/feYeGDhni9Pnbf3SXjh47 Juk/w9rfe/stxcfFdqnw5196WTt379bS9951BM6t27br0aee1ntvvylTYKDu/+VDGp+SrG3bv1Fd XZ0mjE/R/XffrYiIltB6/MQJPf/Sy8renyMfHx/NvWC27vvZTx1fStz+o7tUUVmh//1waZs1tNWj /q8Vn+m1N97UE79+RDOnp6upqVm/+vWjMldU6I///bIsllrdePsdmn3eLG39rq6goCA99OADSv8u EP/q0ceUmbVXVqtVvr5GXXbxxfrxnT/QnT/5mY4VFEiS5l96uSTpnTf/rLjYWP3grp+qsrJSf1/y gUpKSnXj7XcofeoUbd3+jWw2m5LGjtX4lGR98ukK1dbWKjIiQv/vqSeVOHSIY/nLL7lYm7ZsVVl5 uf7w0osaMCBcX6xcpdTxKUocOrTNNigtK9Mrr/1J32RkqKmpWXGxsXri148oceiQdvejtLTMaRtI ktoYrXD7zTdp3ddfa/Xar3TbzTd1qa3ae43BQPJA33fh3Pn64ssVKjeX6/MvV+jCORfp/9avVXl5 mUJCQjV3zkVOgzo96gAAAO7VKqgXFBzX1xs3ymq16lhBgZZ/9L9atGC+TKZAWa1WPfrEUyotK9Od t9+q4KBg/e8//6V7H/iF/vLG64oYMKDD5x+49x698/5fVVhUpJ/fe7ckKWJAuCoqKnTo8JFWRY0a OVImU8c9+Avnz9PqtV9p5+7djmuWV61Zq6SxYxUfF6eTJSU6fuKEhg4Zont/+hOZKyr04T/+oYce e1yv/v5l+fv76ddPPKXYmBi9/fprslgseuypZ/S3D5fpB7fdKkkalpiomprqDus4PahfevEi7c7M 1Mv/8wcNSxyqz79cqdy8PP3hpRdkMplUU2OR1PIlyK9/9QsNjBqoP7z2ml750+uaNmWyJCk1JUWX LlqkgVFR2r5jhz5Y+qFSkpJ0/90/03sf/E1FxcW692c/kSSFh4XJZrNpWOJQ1dTUtKonICBAr7z8 kioqK/TYU8+oobFBv336KQUHB+nhx57QO++/r6cff8yx/JFjx3TT925QYGCgIiMj9Otf/lLPvvCi 7rrnPiWNG6srL7tMM9KnyWg0Ovb9qf/3WzU3N+npxx5TRESEjh47qvi4WNlstnb3Y9TIkU7bwGb/ 77TAEBMTrZCQEB05eqzDbXTUVu29Zsb09A6PNdAXBAQEaMH8i/Xlys9krjDr439+JJvNpv79+2vh /ItlCjR1KqgDAADAfVoF9Z27d2vn7t2SJB8fH930vRv0/euvkyTtycrS3uxsPf+bZzR50kRJUnLS OF130y369LPPNTEttcPn77j1Fg0YEK7KqspWk8Bt+2aHnvntc62KeuOPr2j4sGEdFj4hJUUxMdFa tXqNJqWlqbqmRpu2bNE9p1zHLkkzp6dr1swZkqThw4fpnp8/qN2ZexTgH6BjBQW68YbrVV9fL6PR qBHDh2vz1m2OoO7sWnqDoaVH3Wq1tnr8vrt/pnt+/qAefuyJli8m7rlbQxISZLVaZbW1LDtt6hRN ntjSTtOmTNG7f/1A1dXVCgoK0vXXXiNJqrFYNNUwSR8s/VB5Bw/qxhuuV3h4mCqrKjUxNdWxPavV qod/8aDjZ/s2Jqalaviwlmv5w8LCNCwxUaNHjXQcm29zD7Rafs7s8zVv7lzHekNDQvTeW29o89at WvH5l3r2dy8oKipSjz/8sEYMH6a92dn6NjdX//PiCxo1coQkKWHwIEcd7e3HiBHDnbaBZJPaaFtJ Mhp9ZLNZO9xGR23V3mvSp03t8HgDfUVAQIDmzVuolSs/V2VVpYKD+2nBvEUymUxtvudOZ7PZGIEC AADgRq2C+qUXL9L9d/9M677eoN8897wGxcfJ17dlkePHT0iShgxJcCwfHBysqMhIHT9xQjHR0R0+ 357zZ83U6s9XuFy4wWDQwnnztHTZclnurtX/rVsvg8Gg2efNavc1I4e3BMS8/IMK++5a6t+9/PtW y4SHhblUR1vXqAeZTLr9lpv03Isva/iwYbpo7hzHMo5lbf/52T7U3r6udV9v0OL33ldJaalMJpMk qampqdV2OurRamsbpsDAVr3tgYGBju21tbyd0WjUrBkzNGvGDOV8m6vHn35Gb73zjp7/zTM6cvSo JCl6YFSb9Tjdjw7a4Lunz1hvWVmZzOYKxcfFdbmtOvMaoK8zBZq0YP7F+nrjOs1In6mgoOBOvwc6 E+YBAADQdW1eoz77vFnatOUC/eG115WSlKyoqEjFxsZIko4cPaqoyEhJLROVnSwp0ezzz3P6vNQS rpubu+8PvPkXXaj3Pvib1m/YqH+vWauZ09MVHBzc7vJFxSclSXGxsQr6LqC9+9YbXb7VWHuzvtfX 1+tvHy7XgPBw5eXn66v163XBeS1tcGpg/09g/c9jB/Lz9cLv/1s/uO0WXbJokfz9/HTV9d9r9drm 5uZOBfW2amvr946WP9WokSMUFxur6uqWIfb2CeqOFRzX2P79Wy2bd/Cg0/1orw1sNps9pZ8RuJf+ /R+SpAvOP69LbdWZuoBzRWBgoOZduECSa+c/16gDAAC4V7uTyd39k7u0e0+mfvfy7/Xic89qQkqK xowepf959TXdcestCgoK0if/+lR+vr664pKLFRYW1uHzkhQbE6OvN27SqtVrZDQaNW3qFPXrIFg7 MzAqSpPSUvXu+39VSWmpbv7+985Y5kRhoaqqq1VTXaNXX39dA6OiNG3KZBkMPoqJjtYzv31OP7rj DsXERKuwsEgyGDR5Yss177994UXV1NTo2aefaruAdmZ9f+Mvi1VWXqZXXn5Jf3n3Pf3xT3/W8MRE DYqPb7On13bK7+Vl5ZKk0JBQVVRUaNs3Oxy9vTabTTHR0dq0ZatWf/WVjD5GTZk0UcHBwXrxv/8g i8WiJx99pJ3eZFvr4NtOOLf/XFJSql89+pjGjB6lsWPGyGg0KmvvXuXm5elnd/24ZYK6ceM0cGCU Xn39z/rBbbcoYfBgHSsoUEpSktP96KgN7I+dKCzShk2bZbPZVFVVpW3f7NA3GRm6+fvfU8LgwdqR sdPltupsXQDax6zvAAAA7tVuUO/fr59+8fP79fBjj+sfH3+ia6++Sr99+mm99c47euPtv6i+vl7j xo3Vq79/WQO+61l19vyVl1+mPVlZ+sNrf1JcbKxSx48/q6AuSYsWzNdvnvudIiIGaGJa6hnPL1m2 XB8s/VCSNHxYop59+snvroGWnn36Sf3PH1/TI088KZvNppCQ/rryssscQT33QJ4qKiva3XZbPerr N2zUqtVr9OhDv1RkRITu+clduv+XD+n5l17WS8/91mlvcuqE8Zo7e7Z+/8qrkqSRI4YrNibG8fwl ixYqa+8+vf7m24qJjlZKUpKCgoKUl5+vyqqqdnvIT5+cra1gfOrPlVVVio+P06YtW/X1xk0yGAwa FB+nh3/xoGakT5PNZlOAv7+eeORhvfKnP+vJ3zwrqWWytyceedjpfnTUBvbHdu3Zo1179khqOR+H JSbqsYcf0tTJk7rcVp2pC0DH6FEHAABwL8OSJUtsCxYs8HQdXVZfX69Lr75G1/3X1frhHbc7Hj9Z UqLv3XKbfnH/fRqfkiw/Xz9FRka0OQFSfUODai0WhYaGujRB0o5dO5Sakqq6urpu2ZdTlZvNstls Cg8L8+ikTVarVeaKCvULDpa/v3+7y1ksFjU2Np5xH/We2I+ubMNb2hfojQIDA7Urc5cmpU5q8/nN 2zbrkoWX9HBVAAAAvd9nX36myvLKju+j3hvs2pMpm82m+Rdd2ObzBoNBcbEd36s9wN9fAR2E0I60 NfS9O4SdEng92dNrMBgcE+x1VIfJZJLJdOZtnXpiP7qyDW9pX6A3YjI5AAAA9+r1Qf2LlSs1etRI DUlIcL5wNzPI4LagDgDeymq1MvQdAADAjXp1UC8rL9fmrdv0sx//yDMFfDeZHL1LAM4lTCYHAADg Xr06qJsCTXr7T68pOnrgGc9FRUZ26f7srqBHHcC5iB51AAAA9+rdQd0UqMGDB3m0BkI6gHMNn3sA AADu1auDuqcZDPSoAzj3WK1W7pYAAADgRgT1sxAYGChLrUUB/gGEdQDnBIPBIEutRYGBgZ4uBQAA oM8iqJ+FuNg4FRwvUFhomAID+KMVQN9XV18nc4VZ8XHxni4FAACgzyKon4XwsHBZrVadKDyh+vp6 T5cDAG4XEBCg2JhYhYeFq7m52dPlAAAA9EkE9bPQ3NysqMgoxcbEysfHx9PlAIDbWa1WNTU1qbGx 0dOlAAAA9FkE9bPU2NjIH6wAAAAAgG7jK7WEzZ17dspSa5EkBZmCzmqlNrk4sVo3zcPm8na7i5PN uq0uj+2u7fQHPLPdHuKxiQJ7ql1P2z+PvY/cxOnx6+W726Xz8ywmbA8yBclSa1GQKUhp49Pk5+fX 9ZUBAACgTb6SlLUvSwvnLfR0LfiOzWbj1kc9iPYGXGez2bT2/9YqbUKap0sBAADoc3yklll84T2s VqunSzin0N6A66xWK/92AAAAuAkzoHkh7snes2hvwHW8bwAAANyHoO6F6OHtWbQ34DreNwAAAO5D UPdCVht/APck2htwHe8bAAAA9yGoeyGblSGlPYn2BlzH+wYAAMB9COpeiJ6qnkV7A67jfQMAAOA+ BHUvRE9Vz6K9AdfxvgEAAHAfgroXoqeqZ9HegOt43wAAALhPl4N6Y2Mjt+dxk670VHE8uo6eQcB1 vG8AAADcx9eVhZuamrR+/Xrt379fpaWl8vf3V2xsrC644AIlJCS4q8ZzTmd7qrz9eDQ3N8tms8lo NMpgMHi6nHY5a+833nhDxcXFWrRokSZPntzquY8//lhZWVmaM2eOZs2a1e46CgoKtHjxYo0cOVI3 3HBDt9QNeBI96gAAAO7T6R712tpavfnmm9q4caPKysoUGhoqm82mw4cP67333tPmzZvdWec5pTP3 J+4Nx+PTTz/Vc889p2+//dbTpXTIWXunpqZKkjIzM1s93tzc7Ni3lJQU9xQHeCnuow4AAOA+ne5R //LLL1VaWqqRI0fqsssuU3BwsGw2m3bt2qXPPvtMa9eu1dChQxUbG3tWBdXU1Gj//v0aOnSoSktL ZTKZFBMTIz8/v7Nab2/SmSHsPXU8pJ49Jp44/s7aOyUlRatXr9axY8dkNpsVFhYmScrPz1dDQ4MS EhIUGhrqtvoAb8SlNgAAAO7TqaBusViUlZWlgIAAXXXVVQoICJAkGQwGpaWlqaSkRFu2bNHu3btV XV2tDz/8UElJSbr66qslSUuWLFFeXp5uu+02DR48WNXV1Vq5cqXy8vJkMpmUlJSk2bNny2g0ymw2 6/PPP2+1/YiICNXW1spisejmm2/W0KFDJUmFhYV66623FBERoZ/+9Kfd2Cye5ewPYFeOR2xsrGPY dVJSkoqKilRRUaHo6Gidf/75Gj58uCS5fExiYmJ05513avny5SooKFBtba3CwsKUnJys8847T2+/ /baKiookScuXL5ckxcbG6s4771RNTY3WrFmj/Px81dfXKy4uThdeeKHi4uLa3dYPf/jDbmnbtjhr 76CgII0aNUr79+9XVlaWY4h7dna2JGn8+PGO9bTXHqfLzc09q/cJ4GkEdQAAAPfp1ND3wsJCSS2B yR4KT5WYmChJOn78uNN1NTU16f3331d2drZiY2Pl5+enjRs3atWqVa2WM5lMSktL0+TJkzVkyBDH tcE7d+50LJOVlSVJmjhxYmd2o9dwNqS0q8cjJydHgYGBGjhwoI4dO6alS5fq4MGDXTomcXFxstls KigoUHx8vMaOHavGxkatX79eW7du1YgRIxw9zwkJCUpJSdGIESPU2Nio9957T7t371ZISIiGDBmi w4cP65133nHsV1vbcqfODOE9ffi71WpVTk6OjEajxo4dK0kdtoerOntMAE9h6DsAAID7dKpHva6u TlLLNbl2xcXFWrFiha644gr5+/tLknx8nOf+rKwslZaWavTo0Zo7d66sVqveffdd7dixQ/PmzXMs FxMTo0svvdTxe01NjTZu3Kjs7GwtWrRIAQEB2rt3r4xGo6NHs69w1lPV1vE4lX3ittOHi8fHx+uW W26R1PKFx4oVK7R9+3ZVVFR06ZhI0gMPPKCqqiqVlpYqNDRUmzZtUn5+vm688UZVVlbKbDYrPT1d o0ePdmy3tLRUY8eO1TXXXCNJ2rFjhz7//HNt2LBB06dPb3db7tKZnsHhw4erX79+KikpUWFhoSwW i+rq6jR27FgFBgZKajn/22sPVyf3c/Y+8fV1aR5IoNvRow4AAOA+nfprf+DAgZKkoqIiVVdXq1+/ fjp48KAKCgr0zjvvOHpw7ct15OTJk5JaendzcnJaPVdeXt7u64KDgzVhwgRlZGQoKytLAwcOVGVl pZKSkhQUFNSZ3eg1nPVUtXU8TnX48GFJLWG3PfbgWFpa2uVj0tDQoI8++kgHDhxo9XhjY2O7rykp KZEkDRo0yPGY/efS0tJ2X+dOnekZ9PHxUUpKijZv3qzMzEzHPp46iVxX2qM9zo5JVFSUy+sEuhM9 6gAAAO7TqaAeGRmpkSNHKjc3V//4xz901VVXadq0aQoKCtI///lP7du3T5I0ZcoUWSwWSS3XPLfF PulWUlKSkpKSWj0XEhLiCHJtmTZtmjIyMrRz507Fx8dL6nvD3iXnPVVtHQ97u2ZnZ2vLli3y9fXV pEmT2l3HiRMnJLVc/9/VY7Jt2zYdOHBAycnJSk9PV01NjZYuXep43t6zf2pQjYyMlNRyuzI7+8/2 53paZ3sGU1NTHUHdZrPJZDJpxIgRjuedtYf0n1EQ9lEoXX2fAJ5GjzoAAID7dHr87OWXX663335b R48e1SuvvKLQ0FDV1ta2+mPt6NGjSklJkb+/vw4fPqzFixfLaDS2uvY4OTlZ69evV25urvz8/BQS EqKamhoZDAbH8Oj2nBpQS0pKNGDAAMfEcn1JZ3qqTj8eYWFhamhokMVikcFg0MUXX6wBAwa0ek1B QYGWLVsmg8Hg6PWdOXOmwsPDu3xMJKmsrEwHDx4845p4e/D+4osvlJGRoaamJt18883avHmz9u3b p4qKCplMJuXl5cloNGrWrFlqamrqbDN1m872DEZGRio+Pt7xxcKkSZPanNitrfawj/o4cuSIli1b ptTUVLe9T4CeQI86AACA+3T6PupBQUH68Y9/rGnTpql///6qqKhQU1OTBg0apIsvvljBwcFau3at mpqadO211yomJkbFxcVqaGjQmDFjWq3nxhtv1IABA7Rr1y6tX79eO3bsUGVlZafqSE9Pl9Qy2VZa WpqLu9s7WG3O/wA+/XiYzWY1NTVp6NChuuOOO9ocaeDn56eSkhIdOnRI8fHxuvXWWxUfH9/lYzJ1 6lQNGzZMx48f15o1a1ReXu7oKZakyZMnKzk5WQaDQaWlpQoKCpLNZtOtt96qCRMmqLKyUseOHVNi YqLuuOMORUdHu95Y3aAz7W1nn1RO0hlzI3TUHuHh4ZoyZYp8fHxUVFSkwMBAt75PAHdz5X0DAAAA 1xiWLFliCwkP0SULL3HphXV1dfL393dMIFdWVqaGhoYOr4tuax32a6ztE3I509DQoBdffFGSdP/9 9ys4ONilunuDQ4cPaeiQoS69pr6+Xv7+/o7h5qey354tMTFRN910U4fr6coxsffim0wml2r2Fl1p 7450d3t05ZgA7nbo8CHtzd6r6VOnn/Hc5m2bXf43BQAAANJnX36myvLKzg99P93pgeH0YdadXYer wWPPnj2yWq0aN25cnwzpUtd6qtq6TVtXdOWY9PbJ/Lq7Z7C726MrxwRwN3rUAQAA3KfTQ9+9gc1m 07Zt2yT1zUnk7GxWJmnqSbQ34DreNwAAAO7Tq27GnJ+fr9LSUoWHh/fJSeTsurunymQyKSkpiVt6 tYOeQcB1vG8AAADcp1cF9ZiYGP3kJz9RQEBAm9di9xXd3VM1YMAAXX311d26zr6EnkHAdbxvAAAA 3KdXBfXg4OA+e136qeip6lm0N+A63jcAAADu06uuUT9XnHpvergf7Q24jvcNAACA+xDUvRB/APcs 2htwHe8bAAAA93EMfc/al+XJOnAajkfPor0BAAAAeAtHUE8el+zJOgAAvczhI4c9XQIAAECfxNB3 AAAAAAC8CEEdAAAAAAAvQlAHAAAAAMCLENQBAAAAAPAiBHUAAAAAALwIQR0AAAAAAC9CUAcAAAAA wIsQ1AEAAAAA8CIEdQAAAAAAvAhBHQAAAAAAL0JQBwAAAADAixDUAQAAAADwIgR1AAAAAAC8CEEd AAAAAAAvQlAHAAAAAMCLENQBAAAAAPAiBHUAAAAAALwIQR0AAAAAAC/i1qD+6yee1L0PPNjp3wEA AAAAONf5unPl+3NyVG6u6PTvAAAAAACc69wa1P932Ycu/Q4AAAAAwLmOa9QBAAAAAPAiBHUAAAAA ALwIQR0AAAAAAC9CUAcAAAAAwIsQ1AEAAAAA8CIEdQAAAAAAvAhBHQAAAAAAL0JQBwAAAADAixDU AQAAAADwIgR1AAAAAAC8CEEdAAAAAAAvQlAHAAAAAMCLENQBAAAAAPAiBHUAAAAAALwIQR0AAAAA AC9CUAcAAAAAwIsQ1AEAAAAA8CIEdQAAAAAAvAhBHQAAAAAAL0JQBwAAAADAixDUAQAAAADwIgR1 AAAAAAC8CEEdAAAAAAAvQlAHAAAAAMCLENQBAAAAAPAiBHUAAAAAALwIQR0AAAAAAC9CUAcAAAAA wIsQ1AEAAAAA8CIEdQAAAAAAvAhBHQAAAAAAL0JQBwAAAADAixDUAQAAAADwIgR1AAAAAAC8CEEd AAAAAAAvQlAHAAAAAMCLENQBAAAAAPAiBHUAAAAAALwIQR0AAAAAAC9CUAcAAAAAwIsQ1AEAAAAA 8CIEdQAAAAAAvAhBHQAAAAAAL0JQBwAAAADAixDUAQAAAADwIgR1AAAAAAC8CEEdAAAAAAAvQlAH AAAAAMCLENQBAAAAAPAiBHUAAAAAALwIQR0AAAAAAC9CUAcAAAAAwIsQ1AEAAAAA8CIEdQAAAAAA vAhBHQAAAAAAL0JQBwAAAADAixDUAQAAAADwIgR1AAAAAAC8CEEdAAAAAAAvQlAHAAAAAMCLENQB AAAAAPAiBHUAAAAAALwIQR0AAAAAAC9CUAcAAAAAwIsQ1AEAAAAA8CIEdQAAAAAAvAhBHQAAAAAA L0JQBwAAAADAixDUAQAAAADwIgR1AAAAAAC8CEEdAAAAAAAvQlAHAAAAAMCLENQBAAAAAPAiBHUA AAAAALwIQR0AAAAAAC9CUAcAAAAAwIsQ1AEAAAAA8CIEdQAAAAAAvAhBHQAAAAAAL0JQBwAAAADA ixDUAQAAAADwIgR1AAAAAAC8CEEdAAAAAAAvQlAHAAAAAMCLENQBAAAAAPAiBHUAAAAAALwIQR0A AAAAAC9CUAcAAAAAwIsQ1AEAAAAA8CIEdQAAAAAAvAhBHQAAAAAAL0JQBwAAAADAixDUAQAAAADw IgR1AAAAAAC8CEEdAAAAAAAvQlAHAAAAAMCLENQBAAAAAPAiBHUAAAAAALwIQR0AAAAAAC9CUAcA AAAAwIsQ1AEAZyUnd59ycvd5ugwAAIA+g6AOADgrNtk8XQIAAECf4uvpAgAAvduYkUmeLgEAAKBP oUcdAAAAAAAvQlAHAAAAAMCLENQBAGelotKsikqzp8sAAADoMwjqAICzcvDwAR06nOfpMgAAAPoM JpMDAJyVxCEjPF0CAABAn0JQBwCcldCQME+XAAAA0Kcw9B0AAAAAAC9CUAcAAAAAwIsQ1AEAZyUn d59ycvd5ugwAAIA+g6AOADgrNtla/R4YEOihSgAAAHo3+99RTCYHADgrY0Ymtfo9eVyyvvz3l7LU WiRJQaYgt2379C8JznJlPaJba+4pXSjZ4/vZK5u5g6K9eH88fqy7wGbrfTV7czO315698dzwtC6d mzRzu7r1vW7ovlWdLsgUJEutRUGmIKWNT9PawrUtQZ3eDwCAq9r7t8PPz09TJ03t4WoAAAD6Dl+p +3s/XP72rJu+6PDYt3ZONuu2ujy2u7bTH/DMdnuIx75176l2PW3/+tq3306PXy/f3S6dn2fxjfDp 3/gCgKfZ58gYPXKc47GKSrPyDn6r4YmjWt1C8myXBYCe4ivR+wEA6LqKSrMk7qcOwDNsssnQyW8g 3bUsAHQ3w5IlS2wLFizwdB1Aj+Gbd6B77cr8RgYZNCFlkqdLAQAA6PVWrlzJZHI49/DNO9C9EoeM 8HQJAAAAfQo96gAAAH1IY2Ojdu7Z2SPbam+eDKvNeuay1nZmBj9lHafOk9Jq3e1Mx2FfplOv6wvf pbezPwaD4ZSHDWc81oqT13X0WoPPmY/7GNq+2/Op6+i158k50N5S223eHe196mu7u71Pf/ysX6eu t3d3SxufprVr19KjDgA499hsNhWdLNKJwhOOiVSB3iDIFKTYmFhFR0W3+4di1r4sLZy3sIcrAwB0 hzVfrZH03WRy9m9emfW9yxt28jSzvrtluz2EWd97N2Z9qyZgnwAAIABJREFUb0M3zvru5+fX9ZV5 UNHJIpWUntSYUaMUFsokeOg9zBVm5R3MlyTFDIzxcDUAAHfxlTz7zavNZnPr0AEAQMdsNpv279/v 8uuy9mUpbUKacg7sk0EGjRox1g3VuceJwhOEdPRKYaFhGp44TPu//ZagDgB9mI8k1dXXeawAq7Xt ayUAAD2jq5/Dnvy342xZai2EdPRaYaFhXLIBAH2cx69R99iwYgCApLP/HB49glsSAgAAdCePB3V6 1AHAs9r6HG5oaNDhI0dVWVmpsLAwJQwe1GuvR28Ll1yht+McBoC+zfNBvZ3bBAAAesbpn8MNjY3a viPD8XthUZEKi4o0ZdJE+fv793R5AAAA55y2bwzXg9q7VyIAoGec/jl88OChNpfLb+fx3sjQJ26o jHMZ5zAA9G0eD+r0qAOAZ53+OVxaVtbmcmXl5T1RTs8g46C34xwGgD7N40GdHnUA8KzTP4fbm1yu L03+SW8kejvOYQDo2zwe1OlRBwDP4nMYAADAu3h8Mjl61AHAs7r7c/iiiy/t8PnnfvO0pkya1K3b dBmdkejtOIcBoE/zeFDvTE/OCy+8oPr6esfvwcHBGjx4sNLT0zV48GB3ltctmpubZbPZZDQaz+p2 Kps3b9bq1at1/vnna/bs2Wc878l2Kigo0OLFizVy5EjdcMMNkrq+36fvh11ERISuuOIKLV68WImJ ibrpppu6VNfpnLUr0Nd1d4/6ow/9yvHzii++0KFDh3X3T+5yPDY8MbFbt9cVDBuGp2zYtFn9+/XT mDGjFXDKXRQaGhq0P+dbVVZVadaM6U7XwzkMAH2b54O6C/dR9/f3l9VqVU1Njfbv36+cnBxdd911 GjVqlBsrPHuffvqpMjMzdd1112n06NFu3563tNPZ7re/v3+rgM9toQD3cOVzuDPmzD7f8XPGrl0q LCxq9Vh3slgs8vPzc/0e72QceEhoSIgqKiuVlbVXyclJCvD3V2Njo/buy1aNxaKQ/v07t6IOzmGb GK0IAL2V/TPc40HdlcmJ7rnnHgUFBampqUnr1q3Tpk2blJGR4fVBvaf1lXay78fpHn/8cQ9UA/Rd PT1J3PMvvaydu3dr6XvvysenZaqUrdu269GnntZ7b78pU2Cg7v/lQxqfkqxt279RXV2dJoxP0f13 362IiAGSpOMnTuj5l15W9v4c+fj4aO4Fs3Xfz36qwMBASdLtP7pLFZUV+t8Pl7ZZA72R8JQxo0cp a+8+1Vgs2rt3n8aMGa2cb79VjcUiU2CgRo/u3L/VnMMA0Lf1qqBuZzAY1NTUJEkKCAiQJFVXV2vl ypXKy8uTyWRSUlKSZs+eLaPRKEkym81au3at8vLy5O/vr+HDhyszM1Pp6ekaNGiQPvzwQyUlJenq q6+WJC1ZskR5eXm67bbbNHjwYKfr37p1qzIyMlReXq7g4GDFx8frmmuu0ZtvvqmioiJJ0vLlyyVJ sbGxuvPOO52us7q6Wl999ZW+/fZb+fj4OB53Zzu1tx+5ubkdtpH9j227jvb7bNiHsp869N3ZPp3O Wbu21wZAX9XTQX3h/HlavfYr7dy9W5PS0iRJq9asVdLYsYqPi9PJkhIdP3FCQ4cM0b0//YnMFRX6 8B//0EOPPa5Xf/+y/P399OsnnlJsTIzefv01WSwWPfbUM/rbh8v0g9tulSQNS0xUTU11j+4X0Bl+ fn5KGjdWWXv3yVJbq527dstmsykwMEApyUndMnqMHnUA6L28pkfdlSGXr732mqxWqxoaGiS1hM/0 9HQ1NTXp/fffV1lZmYYMGaKamhpt3LhR9fX1WrRokerq6vTBBx+ovLxcERER6t+/v3Jychwh1hln 68/NzdWqVatkMpk0aNAgWSwWHTt2TJI0YsQI1dfXy2w2KyEhQaGhoQoLC3O6zoaGBn3wwQc6efKk oqKiFBIS4gi+7mqnjvbDVe3td1ZWljZs2NDma9LS0jRt2rRW+3Hq0Pfrr7/+jC8EnO3T6Zy1a3e2 AdBbdPfQd2cmpKQoJiZaq1av0aS0NFXX1GjTli2655Tr2CVp5vR0zZo5Q5I0fPgw3fPzB7U7c48C /AN0rKBAN95wverr62U0GjVi+HBt3rrNEdQff+ShDms4m/lCgLPl7++vpKRxysraq9q6OgUE+Csl ybWQ3uE5zI0cAKD3+u4z3ONB3ZWenLq6OsfPAwcO1I033qh+/fpp165dKi0t1ejRozV37lxZrVa9 ++672rFjh+bNm6f9+/ervLxcY8aM0bXXXivpPxOIdUZWVlaH67cH4qioKM2cOVMJCQny9W1p2rlz 56qyslJms1np6emOa7Wd1Zydna2TJ092qeautlNH++Gq9vZ7+/btOnnyZJuvqa5u3ft16n5ILWHi 9KDu7Niczlm7dmcbAL1FT/eoGwwGLZw3T0uXLZfl7lr937r1MhgMmn3erHZfM3L4cElSXv5BhYWG SpJ+9/LvWy0THhbmvqKBbhbg76/k5CR9m3tAI4cPd4x8AwBA8oKg7kpPzoMPPqiqqiq99dZbKisr U3NzsyQ5gl9OTo5ycnJavaa8vNzxfFdnPne2/nHjxslsNmvbtm1asmSJ/Pz8lJqaqosuuqjdkOds ncXFxV2uuavt1NF+dJcpU6ZoypQpnd6P069RLygoaPW7s306nbN27cqxBHq7nu5Rl6T5F12o9z74 m9Zv2Kh/r1mrmdPTFRwc3O7yRcUt7/W42FgFmUySpHffekOD4uO7tH2u74U3CPD3V0rSuC69tqNz uDcPfTebzTKbzZ4uA8A5IiwsTGFe9kW/1wx9d7UnJzo6WhMnTtSOHTu0atUqXXvttQr9rnclKSlJ SUlJrZYPCQnRgAEtkw8VFha2uU77ULPTe3TtnK2/urpaEydO1IwZM1RYWKh///vf2r59u6Kjo5WW luYYntbY2NjpdTqr2ZmutFNH+2Gvp702srN/KSCpzf3ubs72qaSkpFVdztrV2bEE+qKe7lGXpIFR UZqUlqp33/+rSkpLdfP3v3fGMicKC1VVXa2a6hq9+vrrGhgVpWlTJstg8FFMdLSe+e1z+tEddygm JlqFhUWSwaDJE1vep7994UXV1NTo2aefarsAcjp6u47O4V6a081ms6688kqtW7fO06UAOEfMnj1b n3zyiXeF9e8+wz0e1LvSk3PBBRdo79692r9/v/Ly8pScnKz169crNzdXfn5+CgkJUU1NjQwGg0aP Hq3k5GRt2LBBmZmZMpvNCgkJ0ZEjRxzri4uLk7+/vw4fPqzFixfLaDS2CnLO1r9r1y6tWrVKISEh 6t+/vyMcRkZGtvr/F198oYyMDDU1Nen66693qeYBAwa0O2S8u9qpo/2IiYnpsI3sPd9HjhzRsmXL NGXKlDb3+4477nD1cHfI2T6dXtf48eMVEhLSbrvu27evw2MJ9EWe6FGXpEUL5us3z/1OEREDNDEt 9Yznlyxbrg+WfihJGj4sUc8+/aTjPf3s00/qf/74mh554knZbDaFhPTXlZdd5gjquQfyVFFZ0e62 6VFHb9cXz2Gz2ax169bp66+/1qBBgzxdDoA+7tixYzrvvPNkNpu9K6h/x/NB3eb6H4hBQUGaPXu2 Vq5cqS+//FJ33XWXbrzxRq1YsUK7du1yLGe/HVlAQIBuv/12rV69WocPH1ZpaWmra8H8/Px07bXX as2aNSouLlZERITGjBmjPXv2OLbX0frj4uI0ZMgQFRUVqbi4WJGRkZo+fbpjePXkyZNVXFysvLw8 lZaWKjY2Vn5+fi7VfPLkSSUkJLg0AZKr7eRsPzpqo/DwcE2ZMkW7d+9WUVGRjEZjm/vd0NDQrfdD d3ZsTq8rKCiow3Z11gZAX9SVz+HOevC+e9t9Ln3qVBkMBl00Z84Z809I0gP33qPxKcny8/VTZGRE q8+/IQkJ+u8Xfqf6hgbVWiwKDQ1t9fw7b/6548L6XsbBuaYP30d90KBBGjp0qKfLAACPsH+GG5Ys WWILCQ/RJQsv8Ughhw4f0tAhQ7ttfXV1daqurla/fv0c99Nty9atW7Vq1SrNmjVLc+bM6fb1u8Id 6/TGbbpbX9wnoCccOnxItZZax+8bN29pd9mZ09MdP+cfztf0qdO7vN2t27/Ro08+pb/8+U8akpDg ePxkSYm+d8tt+uXP79eCed03R8apduzaoRnT0p0vCHipTVu3aFLqpDaf275juxbMW9DDFZ29Q4cO KTExUQcPHiSoA3A7b/3MWfnvlSorKeudPeodCQwMdGtIc8f63V2zt2zT3friPgE9wZ096h35YuVK jR41slVI7yl9cdgwzi2cwwDQt5051rCH2ay9e3gWAPR2nvgcLisv1+at27SgG+8q4RIyDnq7Pjz0 HQDOZV4z67unenIiIiKUlJSkgQMHemT7AOAtPPE5bAo06e0/vabo6DM/g6MiI7X68xVu3T69kejt OIcBoG/zeFD3VI/6iBEjNGLECI9sGwC8iSc+h02mQA0ezKzOAAAAbfH40HdP9agDAFqci5/DrtxB A/BGHZ3DNhtD3wGgt7J/hns8qPOPCQB41rn4ORxkClJVVZWnywC6pKqqSkGmIE+XAQBwI4I6AJzj zsXP4ZiYGB05epSwjl6nqqpKR44eVUxMjKdLAQC4keMa9ax9WR4rwpPbBgBIRoPR0yX0qPCwcFmt VuUfOqS6ujpPlwN0WmBgoGKiYxQeFq7m5mZPlwMAcBNHUE8el+zJOgAAHpSdne3pEnpUc3OzoiKj FBsTKx8fjw8uAzrNarWqqalJjY2Nni4FAOBGHp/1HQDQtzQ2Nmrnnp2y1FokqVPX0nZ43+dOjMw/ 6/tGt/Fyl9bZDVcPOLbXxXWdbRuc9SUQXa37u+329L2/29zfHiihw3buxByHQaYgWWotCjIFKW18 mvz8/FzbBgDAq9k/wwnqAIBulbUvSwvnLfR0GUCft+arNUqbkObpMgAAbsB4PwBAt6qr55pvoCfw XgOAvougDgAA0Icw9B0Aei+vuY86AAAAAAD4D4I6AAAAAABehKAOAAAAAIAXIagDAAAAAOBFXL49 W01tjbZlbNCBQ9/Kam1ucxkfH6NGDB2lSakz9eqaEq3LLtOz1w7TlGFhZ10wAAAAAAB9mctBfceu Laqrq9PEsekyGo1tLtPc3KyCkhO67Y/bNDt5kMICbfrj59/qvbunnnXBAACgc2w2m1avXq1JkyZp wIABni4HLigqKtLevXs1d+5cT5cCAPAAl4P6sROHlTJ6kiIjouTj0/bI+craRj21skYLUkLVaAyQ j7FOAQbX7vU5MX1Gh8//8X9+rxnp6S6tEwDgvZqamuTr6/I/S+jAvn37tGXLFp08eVLf//73PV2O U1arVZLa/fviXPKvf/1LhYWFGjZsmIYOHerpcgAAPczlv4iMRl+ZAoPk7+/f5vNlNU26/28H9F9T 45RdUC5zs0U5ubl646ezXNrOc795xvHzRx9/ogP5+XrowQccj40aMdLV0gEAXsRms2nnzp3as2eP iouLVV9fr+DgYCUmJur8889XXV2dFi9erMTERN10003dtt3m5mbZbDYZjUYZDIY2l3njjTdUXFys RYsWafLkya2e+/jjj5WVlaU5c+Zo1qz2/20rKCjQ4sWLNXLkSN1www3dVn9n2Ww2bdiwQZI0c+ZM Pf/882psbGx3+e5uZ1dkZGRo27ZtKi0tlc1mU//+/TVo0CAtWLBA/fr16/C19nbuav2dOR+6a1uu mD59uj7++GNt2LCBoA4A5yCXg7q/n58C/ANlNPrpqU+Oal1Oqf7f1UM1a1SYjpfX6b539ujmOcP1 bXGjjlXYtGffDr185yxNHR3t0nYWzLvI8fPW7dtVcPx4q8e6U01Njfz8/eXv5+eW9QMAWmtsbNSS JUt05MgRSVK/fv0UGhqq8vJyZWdna/78+aqrc20kVmd9+umnyszM1HXXXafRo0e3uUxqaqpWrVql zMzMVkG9ublZ3377rSQpJSXFLfV1l9zcXBUXFysuLk5DhgxRYGCgo6e6sbFRVqtVvr6+jsvY/Dz0 b+DGjRu1du1aSS096UajUZWVlTp48KBMJpPbt9+Z88ETxo0bp7Vr1+rgwYM6fvy44uLiPF0SAKAH uRzU/fz8FRDgr/yT9fp0x3HdvyhRb/77oMoqY/TOmnzdOm+M9hdbVVJRry3bdukvD16iuWkJ3V74 Y089re3f7NAX//rE8YfH1xs36b4Hf6FP/r5MQaYg3fHjuzRpYpo2bNqsutpaTZo4UY8+/CtFRUZK ko4VFOixp55WZtZe+fj4aNGC+Xrkl7/okT8MAOBctnr1ah05ckSxsbG64oorFBUVJaklCJeVlSk4 OFhms7nL66+pqdH+/fs1dOhQlZaWymQyKSYmptNhNCUlRatXr9axY8dkNpsVFtYyGWp+fr4aGhqU kJCg0NDQLtfXE7KzsyVJkyZNkiTdf//9judWrFihnTt3auHChUpLS/NIfXY7duyQJF155ZUaN26c jEajzGazzGZzu3PhuFt75098fLwef/zxHqnBx8dHqampWrdunbKzswnqAHCO6VJQ9/cPUHVdrQzN ddp4sF5XT0/Qxr1HdOu8sdpX1KxqS71Wr9+qexZGuiWkS9IVl12mz79cqW3ffKP0qS2T1K34/AtN SElRwuDBKiou1rGCAo0YPkyP/PJBlZeb9e5fP9DP7rtf7779lgL8/XXPzx9UfFyc/r7kA9XUWHTf L36pv7z7nu7+yV1uqRkAINXW1uqbb76Rr6+vrrvuOoWEhDieMxqNjtBuV1JSorffflslJSUKDw/X zJkzlZycLJvNpuXLl6ugoEC1tbUKCwtTcnKyzjvvPJnNZn3++eet1hMTEyObzaaioiJJ0vLlyyVJ sbGxuvPOO1stGxQUpFGjRmn//v3KyspyDHG3h9/x48dLUoc1nC43N1cffvihkpKSdPXVV0uSlixZ ory8PN12220aPHiwqqurtXLlSuXl5clkMikpKUmzZ892BNatW7cqIyND5eXlCg4OVnx8vK655po2 2/nAgQOS1Olh001NTfrDH/4gi8Wim2++2fG6wsJCvfXWW4qIiNDll1+ud955R0lJSSoqKlJFRYWi o6N1/vnna/jw4ZLkdB9OZ7+UrqSkRFarVUajUWFhYY4vR5y1m/3L+hMnTui1115TVVWVYmNjNWfO HCUkJHTYbm+++Wab58OiRYvaPH8uvvjiVkPf7UPhJ0yYoNLSUhUXFys0NFTp6elKTU2VJJnNZq1d u1Z5eXny9fVVTEyM8vPzdf755+u8887r8JgOHTpU69atU35+vi688MJOHUcAQN/g8mwtfr7+CggI UProgQo21Ckq2KDV+y2aOnawdh1vUrXFopVfbdI7D85X6tAQ5yvsoklpqYqPi9OKz76QJFVVVWvd +vW67NJLWi13wezzNfeCC/RfV12p537ztA7k5WvHjgztyNipw0eOaOH8eaqrq5fRaNSYUaO0/rvr +QAA7nHixAlJLYHo1JDenqqqKtXU1Cg6OlonT57UJ598ovLyctlsNhUUFCg+Pl5jx45VY2Oj1q9f r61btzpeazKZlJaWpsmTJysuLk4jRoxwBMCEhASlpKRoxIgRbW7XHrQyMzMltUx0lpOTI6PRqLFj x0pSp2rorKamJr3//vvKzs5WbGys/Pz8tHHjRq1atUpSS2BdtWqVampqNGjQIAUEBOjYsWNtrqu+ vl4Wi0W+vr6O/XXG19fXMcx/586djsezsrIkSRMnTnRcw52Tk6PAwEANHDhQx44d09KlS3Xw4EGn +9CWefPmKTAwUBs2bNBLL72k5cuX6+DBg52q+VTNzc0KDQ1VXFycjh49qr/+9a8qKCjosN2cnQ+n nz/t2bdvn6xWq6Kjo1VSUqJPP/1UpaWlqqur0wcffKC9e/cqODhYkZGROn78uGPSPGfHNPK7EYBl ZWUutwcAoHfr0jXqfn5+8vU16oMH5+jKJz/Wggtm6F+ZFsUFN2nV199o2eOXa0JihLbsyHdHzZJa hoRdfuklWvze+3rE8kutWr1aMhg0/8L2b2MyetQoSdK3B3IVHhYuSXrimd+0WiaC29cAgFvZbDaX lh86dKhuvvlmSdJnn32mjIwMHTp0SGlpaXrggQdUVVWl0tJShYaGatOmTcrPz3f0pMbExOjSSy9t tb7KykqZzWalp6d3eE3y8OHD1a9fP5WUlKiwsFAWi0V1dXUaO3asAgMDJbX8W+Sshs7KyspSaWmp Ro8erblz58pqterdd9/Vjh07NG/ePDU0NEiSoqKiNHPmTCUkJLQ7S35VVZWklpEBrpg8ebI2btyo 7OxsLVq0SAEBAdq7d6+MRqPGjx+v8vJySVJ8fLxuueUWSS2hfsWKFdq+fbsqKio63Ie26h0+fLju u+8+7dixQ3v27FFOTo5ycnKUkJCg733ve52ufdCgQY4J3jIyMvTZZ59p69atjmPcVrvNnTu3zfOh oKBA0pnnj/3xjrZtP0cPHz4sHx8flZeXa8yYMbr22mslSZs3b9bq1aslyekxtV+K19DQoIaGhnYn 8gUA9D0uB/WAgEDZbC3fBKckRunDxy7XNc/8U4NjopRdWqaPn7pSKYlRamxsUEBAYLcXfKrLLr5Y f37rba1Z+5VWfP6F5sw+v8PZYQu/G942KH6Q44+Xj5d/qCEu/jEFAOi6mJgYSS1Dqqurq53O6n3q TNz2Zevq6tTQ0KCPPvrIMcTbrqOZzV3h4+OjlJQUbd68WZmZmY71njqJXHfWcPLkSUlyBNVTlZeX a9y4cTKbzdq2bZuWLFkiPz8/paam6qKLLjojANsDnat1BAcHa8KECcrIyFBWVpYGDhyoyspKJSUl KSgoyBHUT2X/QqK0tNTpPpx+WcOp9U6fPl3Tp0/XyZMn9dFHH+nIkSPatWuXwsPDXdoHSRo8eLCk lja96qqrOt1u3cF+jtbX16u6urpVPadzdkybmpoktbwHuHUhAJxbXP7Uj4qM0Yni44qLHiRfX19N GRWjfz59lf656YBumXehEmNC1dTUpBPFxxUVGeOOmh1iYqKVPnWK/vTGmyo+eVI/+sEdZyxTUHBc lVVVqqqq0vMvvayYmGjNmjFdBh8fxcXG6le/fkz33/0zxcXF6vjxE5LBoOnTprq1bgA4lwUHBysl JUWZmZn6+9//rssuu8wxxLe5uVnFxcWKjY11up5t27bpwIEDSk5OVnp6umpqarR06VKnr7MH/86E 2NTUVEdQt9lsMplMrYZGd6aG5uZmSf8Jz/bwdjr75HRJSUlKSkpq9VxISIiqq6s1ceJEzZgxQ4WF hfr3v/+t7du3Kzo6+owJ4fr16yeDwaDa2lqX708/bdo0ZWRkaOfOnYqPj5fUMuy9PfZLGSIiIpzu Q1uysrIUFhammJgY+fr6asCAAYqIiNDJkydVX1/vtN06qik8PNxpu7lyPrhqwHej9AoLC9t83llt 9pER/fr1497yAHCOcTmoD4oZrKKTJ5STt9cxfNFX0n9NCVKN+aCyzC1/BIWFhCsuKr676z3DlZdf pocefVxRkZGaNnXKGc//5d339NbidyRJo0aO0Csvv6Tg4GBJ0iu/f0nP/u4F3f3zB2Sz2RQaGqob rr2GoA7gnGYwGNocnu7sHtOuWLBggU6cOKFjx47p9ddfV0hIiEwmk06ePCmr1XrG5G4dKSsrc9zC qjPsXwp88cUXysjIUFNTk+6448wveu3LxsfHO4Y8T5o0qc1J0dqqwT5y68iRI1q2bJlSU1Pl7++v w4cPa/HixTIaja0CXHJystavX6/c3Fz5+fkpJCRENTU1MhgMGj16tHbt2qVVq1YpJCRE/fv3V0lJ Sav9OZWPj49iY2N1/PhxFRQUaMiQIZ1qG/v6Ro4cqdzcXJWUlGjAgAFnTEhXUFCgZcuWyWAwOEYT zJw5U+Hh4R3uw+mqqqr0ySefyGazycfHR6GhoTKbzbLZbAoICFBycrL69evXYbvZHTt2TMuWLZMk 5eXlSZJmzJihffv2ddhubZ0P8+fP73R7dSQ5OVkbNmxQZmamzGazQkJCHLcklOS0Nvv16vYvTAAA 5w6Xg7qvr5/iYxMUH9tzw8Wf+PUj7T533syZ8vHx0cWLFrb5bfPjjzysSRPT5Ofrq4EDB7b6Q3NY YqL+8ufXVV9frxqLReFhYd36hygA9EYRAwaopLT0jMcHdGEIcntMJpN++MMfav369dq7d6/MZrMq Kyvl6+urESNGOCbb6sjUqVN1+PBh5efn6/jx44qJienUNbyTJ09WcXGx8vLyVFpaqtjY2A6v/01N TXUEdfts752pITw8XFOmTNHu3btVVFSkwMBAXXvttVqzZo2Ki4sVERGhMWPGaM+ePZJagv2NN96o FStWaNeuXY5tjPpufhX7/dCLiopUXFysyMhITZ8+vd1h1SNHjtTx48eVnZ3tUlCXpPT0dOXm5qqp qanN27f5+fmppKRENTU1io+P15w5cxxhsqN9OF1TU5NSU1OVk5Mji8Wi8vJyGY1GDRkyRBdeeKFj 2HtH7WYXGRmpwsJC1dfXO2oaNGiQbDZbh+3W3vnQHQICAnT77bdr9erVOnz4sEpLS1udZ86Oqf3y gfYmPAQA9F2GJUuW2ELCQ3TJwkucL+2FNmzarHsfeFD/WPo3DUtMdDxeVFysRZdfqacef1SXX9I7 9w0Aeor9tmOS1NDYqO3f7DhjmSmTJrYKGfmH8zV96vQzltu8bbPL/6bU19ervr6+S0N8LRaLDAaD Y+ItT+juGurq6hzX79snrnNVZWWlXn31VRmNRt13330u1dbQ0KAXX3xRUsv91+0j0ey3I7Pfnqw7 98E+70D//v379Jfma9eu1caNG3XJJZd0eElBWVmZXnvtNQUGBuree+9VQEDAGct89uVn3fYe9AaH Dh1SYmKiDh482OnbCgJAV3nrZ85nX36myvJK1292acWWAAAgAElEQVTP5m0+/te/lDRubKuQDgDo On8/P02ZNFEDo6IUGBCgmOhoTZ08ya0zTgcEBCgkJKRL1+EGBQV5NKS7o4bAwEBFRkZ2OaRLLdeE p6amqrGxUdu3b3fptXv27JHVatWYMWMcId1Vru5DYGCgQkJC+lxIP3DggIqLi9XY2KiCggJlZmbK YDA4HeWwZcsWSS2jNtoK6QCAvu3/t3fncVHV+x/H3zPDzIi4gICyiYAGueWCkuKumWZXc6n01r0t t25qmlqWpZnXSktT27TFyrott2vdezPtV78sckvNJdRfpebGoggJiKCsMsz5/UFyJXEZwBjw9Xw8 fDyc+X7P93zOOAy+53zP99TqJUSPHz+uDd9u1CMPPVjTpQBAnWKz2XRVq5Y1XQaqKDY2Vjt37lR+ fv4lb2MYhrZt2ybpwovI4eLy8vK0fPnyc9Z86N27t3x9fS+4bUFBgWw2m2JiWDcHAK5EtTqoe9av r399+IGCKlgduFnTptqxZXMNVAUAgHvw8fHR/fffX7b6+KVISEjQ8ePH5ePjc85UQE9PT7Vt2/a8 t1lDeXa7XSNHjlRycrLy8vLUpEkTRUREXNIUy1GjRikrK6vGZ4sAAGpGrQ7q9T09FebiAjkAAFxJ XAnpUul97sePHy+73X7ONPQmTZpo5MiR1Vlenebh4aE2bdqoTZs2ldre1X87AEDdUauDOgAAqF5e Xl6Vvi4dAABUj1q/mBwAAAAAAHUJQR0AAAAAADfC1HcAQLX7ac9PNV0CAABArUVQBwBUu3Zt2tV0 CUCdl3w4uaZLAABcJkx9BwAAAADAjRDUAQAAAABwIwR1AAAAAADcCEEdAAAAAAA3QlAHAAAAAMCN ENQBAAAAAHAjBHUAAAAAANwIQR0AAAAAADfi4eoGeQV52rZjow4m7ZfTWVJhH7PZolZhkYru2EOL v8nU+r1ZmntLhLpGeFe5YAAAAAAA6jKXg3r8ri0qLCxU59bdZLFYKuxTUlKio5lpumvJNvVpFyLv eoaWfLFf706MqXLBAAAAAADUZS4H9ZS0ZLWPipafr7/M5opnzp8sKNbs1Xka1L6xii12mS2FspsK XS5u8NCblJ6RIUmyWCwKaNZMPbp305QHJqpevXoujydJqWlp+sOIUVo0f5769eldqTEq65HpM3Qk JUXL339PkjRk+Ailp2eUtfv4+Kh1VKRuGzNa3WL4UgMAAAAArkQuB3WLxUOe9erLZrNV2J6V59CU fxzUqJgg7T16Qtkl+dp34ICW3t+zUgXGdO2i4UOH6nTxae0/cFArV32mk6dO6ZmnnqzUeA0bNNTY e+9ReFiLSm1/ttfffEuJScmaP/fpSm3vLHEqulNH3TR0qJxOp7JzsrV2/QbdP2mKpk6epNv/OKbK NQIAAAAAaheXg7rNapXdVk8Wi1WzPz2i9fuOa87IMPWM9FbqiUJNfucH/blfS+1PL1ZKjqEf9sRr 0b09FRPVrFIFNg8J0eDrB5Y9buLjo1deX6onpj8mT09Pl8dr2LCBxt57zznP5+XlyWqzyWa1Vrid w+HQqdxc+Xj/9zr7pOTDSkhMcLmGs4WGhmrI4EFlj28bPVozZs3WC4uXqEdsd4W1qPoXCgAAAACA 2sPlVd+tVpvsdpsSMor0WXyq/tIrSG98nahV36dpwhvxur1vK/2cbig9p0hbtu3S4rG9NbhLWLUV fPr0aZlMJhmSjqWnq3O3WM1buEiDh96kLrE99fO+fTp1KlfPPLdAQ4aPUN+BgzRxykM6eKg0UKem palzt1itXb9BkpRy9Kju+ut96n3d9erRt79mPfW0CgoKyvaXkZmpKQ9PU2zf/howeIhuuvlWHTx0 SCNHj9FXcXE6lJCozt1i1blbrI6kpFT5+MxmsyaOHyun06nP/3d1lccDAAAAANQuLp9Rt1ptstns yi0skKmkUJsSizSye6g27T6sOwe21p5jJcrNL1Lchq16YLCf+ncKrVKBhw8f1ldxcSopcerwkSN6 7x8fauiNQ1Tf01OnTp2SJCUlJ2vsX++RZz1P+fr6atJDU5WRmakHxo9XgwYN9M+PPtbdf71P/17+ YbmxS0pK9MCDUxUcFKR/ffiB8vLyNfnhR7Ts7+9q4vhxcjqdemjao3I4HHpp4QL5+/srMSlJoaGh emL6dL2ydKlS09I087FHJUl+vr46kZ2tQwnlz7K3ad1a9V04+x8SHCxvb28lJiVV6bUDAAAAANQ+ rgd1D5vsdru6RTWUl6lQ/l4mxf2cr36tm2tXqkOniwq0eu1WvTP1ejlO7atygd/v2Knvd+yUj7e3 mjZtqttG33rO1PUhgwdp2I03SpK2x+/Q//34o1558QV173atJKlTh2t0/R+G6d+frNCIm4aVbRe/ Y6eSDx/WPXfdqcLCIlksFl0dGakNGzdq4vhx+uHHH7V7z169//YytW3TWpLUqmVE6ZgdO8jP1085 OTmK7datbMxN323RtBmPl6vvn++9q6jIq1w6bovFIkOGS9sAAAAAAGq/Sl2jbrVa5eFh0QdT+2n4 31ZoUN9YrfoxX0FeDn317ff66Ilh6hDuqy3xVbt+W5JGDr9Jjz867ZL7n5l+HhERXvZcgwYN1Kxp Ux1JOVqub8rR0sezniq/GJxvkyaSpISkZElScFDgJe//uv79tGPL5kvuX5GMzExlZWUpLLRqsxEA AAAAALWPy0Hdbq8nw3BKktqH+2v5zGG6+amVah7gr73Hs7Ri9nC1D/dXcfFp2e2Vu4VaVTQPDpYk JSYlqVnTppJKF4o7lp6ugQP6l+vr7+8vSVrx8XK1qCAUN/21PfnIEXmftYjcGSZT6fT56mQYht56 +++SpBsGDbpwZwAAAABAneNyUPf3C1BaeqqCmoXIw8NDXSMDtPLJEVq5+aDuGDhA4QGN5XA4lJae Kn+/gMtR8wVFd+6kdm3aaO785zRx3Dh5eXlp+cf/ktXqoVtHjdLp4tPl+gYFBmrajJmaMnGCgoIC lZqaJplM6n5tjKI7dVRQYKDmPDtPD02apIiIcCUlJ6tL586yWCwKCQ7WmnXr9dnnX8jiYVGv2B5q 2LCBS/WmpBxV3Jq1MgxDOTk52rBxozZu/k4Txt1XNs0eAOqKGbP+ptzcXL38/KJLegwAAHAlcjmo hwQ017GMNO07tFuGYZQNMqprfeVlJ+qnbMlkMsm7kY+C/IOru96LMpvNWvzCIr30yqt64eXFKiws VIdr2uvdt96Un5+vUtPSyvrW9/TUy88vLA31Dz4kwzDUuHFjjbnlZnW/Nkaenp56adFCPTn3GU2Y 8mDp8QcH6+XnFyqsRQuNueVmxe/cpWcXLFRIcLC6Rke7HNS3bt+urdu3S5IaN2qkqKhIvbjwOfXu Wbn7zgOAO/t53z6dyM655McALm7fgT2SpKir2tRwJQCA6uJyUPfwsCo4MFTBgZf/+ukvP1t5wfZm TZtWeD1448aNNWvG9EvaR0R4uJa9/pqKioqUl58vH29vmUymsvaWEeF6b9mbys3N1eniYjXx8Slr 8/X11dtLX7vEo5EWPPtMuccXOz4AqGs++Wi5S48BXJwhQyaZLt4RAFBruBzUa7v8/HxJktVqLfe8 3W6X3W4/73YNGrh2phwAAOD3cPVVbWu6BABANTPXdAG/J6fTqf98ulImk0kR4WE1XQ4AAAAAAOe4 ooJ62i+/6NNVn+mxR6YqKPDSb7kGAAAAAMDv5Yqa+h4cFKTV/7NKjRo2rOlSAAAAqkXOyWxJUuNG 595KFgBQO11RZ9QlEdIBAECdkph8UEnJh2q6DABANbqizqgDAADUNeEtWtV0CQCAakZQBwAAqMWY 8g4Adc8VN/UdAAAAAAB3RlAHAAAAAMCNENQBAABqsX0H9mjfgT01XQYAoBoR1AEAAGoxQ0ZNlwAA qGYsJgcAAFCLXX1V25ouAQBQzTijDgAAAACAGyGoAwAAAADgRgjqAAAAtVjOyWzlnMyu6TIAANWI oA4AAFCLJSYfVFLyoZouAwBQjVhMDgAAoBYLb9GqpksAAFQzgjoAAEAt1riRd02XAACoZi4H9byC PG3bsVEHk/bL6SypsI/ZbFGrsEhFd+yhxd9kav3eLM29JUJdI/hFAgAAAADAhbgc1ON3bVFhYaE6 t+4mi8VSYZ+SkhIdzUzTXUu2qU+7EHnXM7Tki/16d2JMpYrMzc1V5vEsNWvqL09Pz0qNAQAAAABA beByUE9JS1b7qGj5+frLbK54LbqTBcWavTpPg9o3VrHFLrOlUHZTocvFJSUf1tx58xW/c6ckyWQy qUt0Z82Y9ohahIZedPv8ggL1HjBQkydO0J9v++M57alpafrDiFFaNH+e+vXp7XJ9VfHI9Bk6kpKi 5e+/J0kaMnyE0tMzytp9fHzUOipSt40ZrW4xlfuCAwAA1H37Du6RSSZFtmpd06UAAKqJy0HdYvGQ Z736stlsFbZn5Tk05R8HNSomSHuPnlB2Sb72HTigpff3dGk/hmHo4cemy+Fw6MWFzykoMFCJScmK W7NWvk2aXPI4TqdThmFU2NawQUONvfcehYe1cKm2irz+5ltKTErW/LlPV2p7Z4lT0Z066qahQ+V0 OpWdk6216zfo/klTNHXyJN3+xzFVrhEAAAAA4P5cDuo2q1V2Wz1ZLFbN/vSI1u87rjkjw9Qz0lup Jwo1+Z0f9Od+LbU/vVgpOYZ+2BOvRff2VExUM5f2k5WVpYTERD08ZbJ69ywN+a1attTAAf1dLVmG YSg9I0OGYaipv79MJpMkqWHDBhp77z3n9M/Ly5PVZpPNaq1wPIfDoVO5ufLx/u8190nJh5WQmOBy bWcLDQ3VkMGDyh7fNnq0ZsyarRcWL1GP2O4Ka1H1LxQAAEDdEtWqTU2XAACoZi7fR91qtclutykh o0ifxafqL72C9MbXiVr1fZomvBGv2/u20s/phtJzirRl2y4tHttbg7uEuVyYj4+P/Px8tWLVKh04 eLDCPsfS09Ultqc++/yLsuc+/vd/1CW2p06dyi17bslrr2vw0Jt0w7DhuvmPt+un3bsllU5979wt VmvXb5AkpRw9qrv+ep96X3e9evTtr1lPPa2CgoKycTIyMzXl4WmK7dtfAwYP0U0336qDhw5p5Ogx +iouTocSEtW5W6w6d4vVkZQUl4/5t8xmsyaOHyun06nP/3d1lccDAAAAALg/l8+oW6022Wx25RYW yFRSqE2JRRrZPVSbdh/WnQNba8+xEuXmFyluw1Y9MNhP/Ttd/FryipjNZs2fM0fTHp+p0X+6Qx07 dNBto29Vvz69yy1i53Q6Zei/U9sNw5DT6Sw31k1/uFF33fFnFRYW6sXFr2jKw9P0n4/+Wa5PSUmJ HnhwqoKDgvSvDz9QXl6+Jj/8iJb9/V1NHD9OTqdTD017VA6HQy8tXCB/f38lJiUpNDRUT0yfrleW LlVqWppmPvaoJMnP11cnsrN1KKH8WfY2rVurvgsL4oUEB8vb21uJSUmXvA0AAAAAoPZyPah72GS3 29UtqqG8TIXy9zIp7ud89WvdXLtSHTpdVKDVa7fqnanXy3FqX5WK69Sxg7749BOt27BBH//7E02b 8bgCAprp+fnzdHVU1CWPExoaqpDgYEnSrMena/DQm7Rm3Tpd27VrWZ/4HTuVfPiw7rnrThUWFsli sejqyEht2LhRE8eP0w8//qjde/bq/beXqW2b0sVaWrWMKKvTz9dPOTk5iu3WrWzMTd9t0bQZj5er 5Z/vvauoyKtceh0sFku5LyMAAAAAAHVXpa5Rt1qt8vCw6IOp/TT8bys0qG+sVv2YryAvh7769nt9 9MQwdQj31Zb4ql2zLUlWq1UDBwzQwAED9NPu3bp/8oN6/qXFeuPVJZUaz9/PT1arVYePpJQL6ilH j0qSZj1VfjG4MwvXJSQlS5KCgwIveV/X9e+nHVs2V6rOMzIyM5WVlaWwS1jlHgAAAABQ+7kc1O32 ejKM0qnl7cP9tXzmMN381Eo1D/DX3uNZWjF7uNqH+6u4+LTs9nrVWmy7tm0V2jxEJ0+dlKSyReEK Cy791m/HjqWruLhYAU2blnve399fkrTi4+UV3vqt6a/tyUeOyPusReTOMJlKp89XJ8Mw9Nbbf5ck 3TBo0IU7AwAAAADqBJeDur9fgNLSUxXULEQeHh7qGhmglU+O0MrNB3XHwAEKD2gsh8OhtPRU+fsF VLqwY8eO6e6x43RNu/bq2KG9LBaL4nfs0p69P5e7Dtyrfn2t//ZbxXbvpqOpqdq6ffs5Y+3es1cH Dx1SXn6+Xn19qby8vHTdgP4qKioq6xPduZOCAgM1bcZMTZk4QUFBgUpNTZNMJnW/NkbRnToqKDBQ c56dp4cmTVJERLiSkpPVpXNnWSwWhQQHa8269frs8y9k8bCoV2wPNWzYwKVjTkk5qrg1a2UYhnJy crRh40Zt3PydJoy7r2yaPQAAAACgbnM5qIcENNexjDTtO7S77P7kHpJGda2vvOxE/ZRdeqbbu5GP gvyDK11YzslTCgttoTXr1umruDiZzWa1CA3Vgmef0YB+fSWVLjg3fdojemruMxo26hbZrFZ1P+sa 8TMyj2dq9J/ukGEYCm3eXC8vWijfJk2UmpZW1qe+p6defn6h5s5/ThMffEiGYahx48Yac8vN6n5t jDw9PfXSooV6cu4zmjDlwdLXIjhYLz+/UGEtWmjMLTcrfucuPbtgoUKCg9U1OtrloL51+/ayLxoa N2qkqKhIvbjwubLb0wEAAAAA6j6Xg7qHh1XBgaEKDry810xHXtVKr778opxOp45nZalRw4ay2+3n 9BsyeJD69emt9IwMBQYGnnPv8zPXiBcUFOj06dNq3LjxefcZER6uZa+/pqKiIuXl58vH27tser0k tYwI13vL3lRubq5OFxeriY9PWZuvr6/eXvraJR/fgmefKff4y89WXvK2AAAAAIC6y+Wg/nszm83y 9/O7YB9PT88Kryv/bR/P39wWLT8/X1LpgnVns9vtFX4pcEaDBq6dKQcAAAAA4FKZa7qAmuJ0OvWf T1fKZDIpIjyspssBAAAAAEDSFRzU0375RZ+u+kyPPTJVQYGXfss1AAAAAAAuJ7ef+n65BAcFafX/ rFKjhg1ruhQAAAAAAMpcsWfUJRHSAQAAAABu54oO6gAAAAAAuBuCOgAAAAAAboSgDgAAAACAGyGo AwAAAADgRgjqAAAAAAC4EYI6AAAAAABuhKAOAAAAAIAbIagDAAAAAOBGCOoAAAAAALgRgjoAAAAA AG6EoA4AAAAAgBshqAMAAAAA4EYI6gAAAAAAuBEPVzfIK8jTth0bdTBpv5zOkgr7mM0WtQqLVHTH Hlr8TabW783S3Fsi1DXCu8oFAwAAAABQl7kc1ON3bVFhYaE6t+4mi8VSYZ+SkhIdzUzTXUu2qU+7 EHnXM7Tki/16d2JMpYrMzc1V5vEsNWvqL09Pz0qNAQAAAABAbeByUE9JS1b7qGj5+frLbK545vzJ gmLNXp2nQe0bq9hil9lSKLup0OXikpIPa+68+YrfuVOSZDKZ1CW6s2ZMe0QtQkNdHu9S5eXl6YN/ Llff3r0VFXnVZdvPI9Nn6EhKipa//54kacjwEUpPzyhr9/HxUeuoSN02ZrS6xVTuSw4AAAAAQO3i clC3WDzkWa++bDZbhe1ZeQ5N+cdBjYoJ0t6jJ5Rdkq99Bw5o6f09XdqPYRh6+LHpcjgcenHhcwoK DFRiUrLi1qyVb5Mmrpbtkty8PC19a5kCAwMua1D/LWeJU9GdOuqmoUPldDqVnZOttes36P5JUzR1 8iTd/scxv1stAAAAAICa4XJQt1mtstvqyWKxavanR7R+33HNGRmmnpHeSj1RqMnv/KA/92up/enF Sskx9MOeeC26t6diopq5tJ+srCwlJCbq4SmT1btnachv1bKlBg7oX2H/vLw8WW022azWCtsLCwtl s9kqnAXw27ZmTZtqx5bNLtUrSU6nUxkZGfL19ZWHh8svrSQpNDRUQwYPKnt82+jRmjFrtl5YvEQ9 YrsrrEWLSo0LAAAAAKgdXF713Wq1yW63KSGjSJ/Fp+ovvYL0xteJWvV9mia8Ea/b+7bSz+mG0nOK tGXbLi0e21uDu4S5XJiPj4/8/Hy1YtUqHTh48Lz9Uo4e1V1/vU+9r7tePfr216ynnlZBQUFZ+xdf rtbQkTcrtm9/9ex/nRa++NJF246lp6tLbE999vkXkqRTp3L1zHMLNGT4CPUdOEgTpzykg4cSyvp2 7harx2bOUq8BA3XDTSPUb9AN2rBxo8vHXBGz2ayJ48fK6XTq8/9dXS1jAgAAAADcV6WCus1mV25h iUwlhdqUWKSR3UO1ae8vunNga+055lR2bpHiNmzVA4P91L9T5a4lN5vNmj9njrJzTmr0n+7QX8aO V9yatSop+e9K8yUlJXrgwalq4NVA//rwA7299HVt3Pydlv39XUnSgYMHNXP2k+rXp4/+s/xDvbjg OTVr2vSibVLp2XFDhpxOpyY9NFWbv9uiB8aP19Oz/yan06m7/3qfjqWnl/UvLj6teXOe1sf/+EAt I8L1zPwFkqQT2dn6fseOcn/yz/oi4VKEBAfL29tbiUlJlXotAQAAAAC1h8vzs60eNtntdnWLaigv U6H8vUyK+zlf/Vo3165Uh04XFWj12q16Z+r1cpzaV6XiOnXsoC8+/UTrNmzQx//+RNNmPK6AgGZ6 fv48XR0VpfgdO5V8+LDuuetOFRYWyWKx6OrISG3YuFETx4+T2WyRyWTSL8d+UWFhobp2iVZM1y6S dMG2s8Xv3KX/+/FHvfLiC+re7drSujpco+v/MEz//mSFbh45QpLUp3cv9eoRW/r3Xr20+NXXlJeX p/gdOzVtxuPlxvzne++6fO27xWKRIcPl1xAAAAAAULu4fEbdZrXKarXKZrXog6n99MU3m9TQJq36 MV9F+blavW6rPnpimGLbhpz3enFXWK1WDRwwQG++9oreW/amcnPz9PxLiyWVTnuXpFlPPa0/3f0X /enuv2jLtm06cSJbktQyIlyvvPSC0n75Rbff9ReN/tOf9e3GTRdtO9uRlBRJUkREeNlzDRo0ULOm TXUk5WiFNdf/9RZyTqeh6/r3044tm8v9cTWkZ2RmKisrS2GXcaV7AAAAAIB7cDmo2+31ZBhOSVL7 cH8tnzlMn6/ZpMwjB/TNpnitmD1c0Vc1k2E4ZbfXq9Zi27Vtq9DmITp56qQkyd/fX5K04uPl5YLw 11/8T9k23WJi9P7by/TRB++pgVcDTX1sujIyMy/adkbz4GBJKjftPC8vT8fS0xXaPKRaj68ihmHo rbf/Lkm6YdCgC3cGAAAAANR6Lk999/cLUFp6qoKahcjDw0NdIwO08skRWrn5oO4YOEDhAY3lcDiU lp4qf7+AShd27Ngx3T12nK5p114dO7SXxWJR/I5d2rP3Z8187FFJUnTnTgoKDNS0GTM1ZeIEBQUF KjU1TTKZ1P3aGO3es1eHEhJ0dVSUbDarIq9qpR9375bVw+OCbUWnT5fVEd25k9q1aaO585/TxHHj 5OXlpeUf/0tWq4duHTVKJc6S8x1CpaSkHFXcmrUyDEM5OTnasHGjNm7+ThPG3adWLSOqdV8AAAAA APfjclAPCWiuYxlp2ndotwzDKBtkVNf6ystO1E/ZkslkkncjHwX5B1e6sJyTpxQW2kJr1q3TV3Fx MpvNahEaqgXPPqMB/fpKKp1i/vLzC0tD9IMPyTAMNW7cWGNuuVndr43RqdxTeuHlxco5WXoG3svL S48/Ok3e3t76ef/+87advUic2WzW4hcW6aVXXtULLy9WYWGhOlzTXu++9ab8/HzL9a0OW7dv19bt 2yVJjRs1UlRUpF5c+FzZLeoAAAAAAHWb6cMPPzQa+TTSjYNvrOlaKuR0OnU8K0uNGjaU3W4/b7+i oiLl5efLx9tbJpOp3PYnTpxQcbFDTZv6l7uP+oXaAOBKsnfvXpe3SUhOUPeY7uc8/92279z2dwpQ l3z+5ed16mcwKSlJ4eHhSkxMVFhYWE2XA6COc9fPnM+//FwnT5x0/Yz6781sNsvfz++i/ex2e4VB 3mw2y9fX97xjn68NAAAAAICawClkAAAAAADcCEEdAAAAAAA3QlAHAAAAAMCNENQBAAAAAHAjBHUA AAAAANwIQR0AAAAAADdCUAcAAAAAwI0Q1AEAAAAAcCMEdQAAgDrEZDLVdAkAgEo68xlOUAcAAAAA wI0Q1AEAAAAAcCMEdQAAgDqEqe8AUHsx9R0AAAAAADdEUAcAAAAAwI0Q1AEAAAAAcCMEdQAAAAAA 3AhBHQAAAAAAN+Lh6gZ5BXnatmOjDibtl9NZUmEfs9miVmGRiu7YQ4u/ydT6vVmae0uEukZ4V7lg AAAAnB+rvgNA7XXmM9zloB6/a4sKCwvVuXU3WSyWCvuUlJToaGaa7lqyTX3ahci7nqElX+zXuxNj KlVsbm6uMo9nqVlTf3l6elZqDAAAAAAAagOXg3pKWrLaR0XLz9dfZnPFM+dPFhRr9uo8DWrfWMUW u8yWQtlNhS4Xl5R8WHPnzVf8zp2SSr9d6BLdWTOmPaIWoaEuj1cdHpk+Q0dSUrT8/fckSUOGj1B6 ekZZu4+Pj1pHReq2MaPVLaZyX0wAAAAAAK5cLgd1i8VDnvXqy2azVdielefQlH8c1KiYIO09ekLZ Jfnad+CAlt7f06X9GIahhx+bLofDoRcXPqegwEAlJiUrbs1a+TZp4mrZl42zxKnoTh1109Chcjqd ys7J1tr1G3T/pCmaOnmSbv/jmJouEQAAXEFMYuo7ANRWZz7DXQ7qNqtVdls9WSxWzf70iNbvO645 I8PUM9JbqScKNfmdH/Tnfi21P71YKTmGftgTr0X39lRMVDOX9pOVlaWExEQ9PGWyevcsDfmtWrbU wAH9K+zvcDh0KjdXPt7e5zx/8tQpNWrYUIEQb2sAAAioSURBVB4e5x6u0+lURkaGfH19K2y/FKGh oRoyeFDZ49tGj9aMWbP1wuIl6hHbXWEtWlRqXAAAAJeR0wGg9vr1M9zlZGq12mS325SQUaTP4lM1 5YZwvfF1orJOBuidbxJ058Cr9XO6U5k5RdqybZeWTb1R/Tu5Pk3dx8dHfn6+WrFqlbp2idZVrVpV 2C8jM1Nz5z2nzVu2yOFwqHlIiBbNf1atWrbU2AkTFb9zl5xOpzw8PHTrqJGaOmWy0jMydMOw4br+ uuv07aZNKigokJeXl+Y++beyLwWqwmw2a+L4sfoqLk6f/+9qTRh3X5XHBAAAuBKkpKTUdAkArgDu /llTqaBus9mVW1ggU0mhNiUWaWT3UG3afVh3DmytPcdKlJtfpLgNW/XAYL9KhXSpNOzOnzNH0x6f qdF/ukMdO3TQbaNvVb8+vcsWsXM6nXpo2qNyOBx6aeEC+fv7KzEpSaG/Xr/etUsX3TJqlAICmmnT 5u+09K1liu7USW3atJYkFRef1rw5TyswIEBz5s3TM/MXqHfPnjqRna1DCQnl6mnTurXqu7CQXUhw sLy9vZWYlFSp4wcAAKiM2jr13dvbW3369FGvXr1quhQAV4g+ffrI29u97kxW6anvVg+b7Ha7ukU1 lJepUP5eJsX9nK9+rZtrV6pDp4sKtHrtVr0z9Xo5Tu2rUpGdOnbQF59+onUbNujjf3+iaTMeV0BA Mz0/f56ujorSDz/+qN179ur9t5ep7a/hu1XLiLLt7737Lkmlq8ZbzGYtfWuZ9h88WBbU+/TupV49 Ykv/3quXFr/6mvLy8hS/Y6emzXi8XC3/fO9dRUVe5VL9FotFhozKHj4AAIDramdOl7e3tz799FNl Z2fXdCkArhDe3t5uF9QrPfXdZrXKarXKw8OiD6b20/C/rdCgvrFa9WO+grwc+urb7/XRE8PUIdxX W+ITLj7gRVitVg0cMEADBwzQT7t36/7JD+r5lxbrjVeXKCEpWZIUHBRY4bZffvW1Xlryio6lp8ur fn1JksNR8b3fz5wtdzoNXde/n3Zs2VylujMyM5WVlaWwGlqdHgAAoLZxy/80A0ANqPj+ahdgt9eT YTglSe3D/bV85jB9vmaTMo8c0Deb4rVi9nBFX9VMhuGU3V6vWott17atQpuH6OSpk5Kkpv7+kqTk I0fO6fvz/v2aMetvum3MaG3ZsE7fromTzWqt1nrOxzAMvfX23yVJNwwadOHOAAAA1ai2Tn0HAFRh 6ru/X4DS0lMV1CxEHh4e6hoZoJVPjtDKzQd1x8ABCg9oLIfDobT0VPn7BVS6wGPHjunuseN0Tbv2 6tihvSwWi+J37NKevT9r5mOPSpKiO3VUUGCg5jw7Tw9NmqSIiHAlJSerS+fOOn78uCSpiY+PTmRn a8PGjSp2OCpdz4WkpBxV3Jq1MgxDOTk52rBxozZu/k4Txt1Xbio+AADAZefyaRgAgNv49TPc5aAe EtBcxzLStO/QbhmGUTbIqK71lZedqJ+yJZPJJO9GPgryD650fTknTykstIXWrFunr+LiZDab1SI0 VAuefUYD+vWVJHl6euqlRQv15NxnNGHKg6X1BQfr5ecXqvu11+oPQ27QE08+JUlq26a1moeEVLqe C9m6fbu2bt8uSWrcqJGioiL14sLnqmUFeQAAAADAlcX04YcfGo18GunGwTfWdC0VcjqdOp6VpUYN G8put5+3X25urk4XF6uJj0+5548fPy6nYcjP11cmE1PBAKAie/fudXmbhOQEdY/pfs7z3237ThEt mE0EXG7n+xnc8X87dF2/62qgIgBAVcWtjVPGLxmun1H/vZnNZvn7+V20X4MGDSp83tfXt7pLAgAA cFtcow4AtdeZz3CuYgIAAAAAwI24/Rl1AEDtd7q4WImJSTqelVW2vglQV5lMJvk2aaLw8LDf7Y4z AIC6haAOALisTp8+re3xO2q6DOB3YxiGMo8fV+bx4+oa3Vk2m62mSwIA1DJMfQcAXFbJh4/UdAlA jeH9DwCoDII6AOCyOnnyZE2XANQY3v8AgMogqAMALitvb++aLgGoMbz/AQCVQVAHAFxWoc1DaroE oMbw/gcAVAZBHQBwWVmtVnWN7izfJk1kMnF/Z9R9Z1Z97xrdWVZWfQcAVAKrvgMALjubzaaroyJr ugwAAIBagTPqAAAAAAC4EbMk1bPXq+k6AAC1zPl+d/A7Bfh98LMGAHWXhyS1a9NOX379pfIL8iVJ 9T3rV2lQQ4arG1QLl/dbXS6y28tWV40drvHbJ2pmv78Tw3DP91W17eY3x1djP0eXyUX//Wr54Vbq /VmFy8Tre9ZXfkG+6nvWV6drOlXYp12bdtr5w06Xfqdc8H13CYdY5fdtBZu7NGY1vI/K9lfJsar6 GlT5s66ydf+639/7s6fC4/0dSrjg63wJP5uX+jP45ddfVrJC15zveJyG89y+zor7nj3G2e+DcmOf 52Wr6P1z3u3qwhIZ5zmes9f/MP3acN41QS6y3YW2NZnPfd5sqniC7tlj1Nr3yRXweksVv+bV8Xqf vW11v96/fb7K26nyr3d163RNJ635ZU1pULdarYqJjrlsOwMAXDn4nQLULH4GAaD24xp1AAAAAADc CEEdAAAAAAA3QlAHAAAAAMCNENQBAAAAAHAjBHUAAAAAANwIQR0AAAAAADdCUAcAAAAAwI0Q1AEA AAAAcCMEdQAAAAAA3AhBHQAAAAAAN0JQBwAAAADAjRDUAQAAAABwIwR1AAAAAADcCEEdAAAAAAA3 QlAHAAAAAMCNENQBAAAAAHAjBHUAAAAAANwIQR0AAAAAADdCUAcAAAAAwI0Q1AEAAAAAcCMEdQAA AAAA3AhBHQAAAAAAN0JQBwAAAADAjRDUAQAAAABwIwR1AAAAAADcCEEdAAAAAAA3QlAHAAAAAMCN ENQBAAAAAHAjHpK0evXqmq4DAAAAAABI+n/J9r+DqpeUAQAAAABJRU5ErkJggg== "
     id="image3047"
     x="0"
     y="0"
     inkscape:export-filename="/home/franzi/MPI/GitLab/XNAT_Scan_Ambassador/READMEimages/GUI_overview.png"
     inkscape:export-xdpi="71.833336"
     inkscape:export-ydpi="71.833336" />
  <rect
     style="fill:none;stroke:url(#linearGradient3848);stroke-width:4.5;stroke-miterlimit:4;stroke-dasharray:none"
     id="rect3049"
     width="395.1145"
     height="162.48044"
     x="3.0634556"
     y="151.43881" />
  <rect
     style="fill:none;stroke:url(#linearGradient3864);stroke-width:4.5;stroke-miterlimit:4;stroke-dasharray:none"
     id="rect3049-5"
     width="395.68829"
     height="31.864698"
     x="2.7728767"
     y="113.43495" />
  <rect
     style="fill:none;stroke:url(#linearGradient3903);stroke-width:4.5;stroke-miterlimit:4;stroke-dasharray:none"
     id="rect3049-6"
     width="394.71277"
     height="190.47675"
     x="3.2714653"
     y="320.05841" />
  <rect
     style="fill:none;stroke:url(#linearGradient3934);stroke-width:4.5;stroke-miterlimit:4;stroke-dasharray:none"
     id="rect3049-5-4"
     width="213.39418"
     height="65.556938"
     x="185.02979"
     y="42.168316" />
  <rect
     style="fill:none;stroke:url(#linearGradient3965);stroke-width:4.5;stroke-miterlimit:4;stroke-dasharray:none"
     id="rect3049-5-4-7"
     width="301.5925"
     height="65.556938"
     x="404.66351"
     y="42.168316" />
  <rect
     style="fill:none;stroke:url(#linearGradient3996);stroke-width:4.5;stroke-miterlimit:5;stroke-dasharray:none"
     id="rect3049-5-4-6"
     width="176.22064"
     height="65.556938"
     x="2.0885246"
     y="42.168316" />
  <rect
     style="fill:none;stroke:url(#linearGradient4027);stroke-width:4.56789494;stroke-miterlimit:4;stroke-dasharray:none"
     id="rect3049-5-4-7-1"
     width="591.43024"
     height="197.00221"
     x="405.30164"
     y="113.93792" />
  <rect
     style="fill:none;stroke:url(#linearGradient4058);stroke-width:4.5;stroke-miterlimit:4;stroke-dasharray:none"
     id="rect3049-5-4-7-1-3"
     width="223.19081"
     height="33.515182"
     x="405.2493"
     y="318.409" />
  <rect
     style="fill:none;stroke:url(#linearGradient4058-0);stroke-width:4.50000000000000000;stroke-miterlimit:4;stroke-dasharray:none"
     id="rect3049-5-4-7-1-2"
     width="223.15395"
     height="154.06583"
     x="405.2677"
     y="357.76132" />
  <rect
     style="fill:none;stroke:url(#linearGradient4104);stroke-width:4.5;stroke-miterlimit:4;stroke-dasharray:none"
     id="rect3049-5-4-7-1-2-1"
     width="360.76401"
     height="192.96933"
     x="635.46735"
     y="318.409" />
  <text
     xml:space="preserve"
     style="font-size:40px;font-style:normal;font-weight:normal;line-height:125%;letter-spacing:0px;word-spacing:0px;fill:#ffffff;fill-opacity:1;stroke:url(#linearGradient4466);font-family:Sans"
     x="275.71109"
     y="140.18645"
     id="text4140-4"
     sodipodi:linespacing="125%"><tspan
       sodipodi:role="line"
       id="tspan4142-2"
       x="275.71109"
       y="140.18645"
       style="font-size:30px;stroke:url(#linearGradient4466)">3</tspan></text>
  <text
     xml:space="preserve"
     style="font-size:40px;font-style:normal;font-weight:normal;line-height:125%;letter-spacing:0px;word-spacing:0px;fill:#ffffff;fill-opacity:1;stroke:url(#linearGradient4428);font-family:Sans"
     x="281.26593"
     y="74.988396"
     id="text4140-4-9"
     sodipodi:linespacing="125%"><tspan
       sodipodi:role="line"
       id="tspan4142-2-6"
       x="281.26593"
       y="74.988396"
       style="font-size:32px;stroke:url(#linearGradient4428)">2</tspan></text>
  <text
     xml:space="preserve"
     style="font-size:40px;font-style:normal;font-weight:normal;line-height:125%;letter-spacing:0px;word-spacing:0px;fill:#ffffff;fill-opacity:1;stroke:url(#linearGradient4444);font-family:Sans"
     x="190.50352"
     y="244.19189"
     id="text4140-4-95"
     sodipodi:linespacing="125%"><tspan
       sodipodi:role="line"
       id="tspan4142-2-3"
       x="190.50352"
       y="244.19189"
       style="font-size:32px;stroke:url(#linearGradient4444)">4</tspan></text>
  <text
     xml:space="preserve"
     style="font-size:40px;font-style:normal;font-weight:normal;line-height:125%;letter-spacing:0px;word-spacing:0px;fill:#ffffff;fill-opacity:1;stroke:url(#linearGradient4452);font-family:Sans"
     x="190.56535"
     y="427.17746"
     id="text4140-4-0"
     sodipodi:linespacing="125%"><tspan
       sodipodi:role="line"
       id="tspan4142-2-5"
       x="190.56535"
       y="427.17746"
       style="font-size:32px;stroke:url(#linearGradient4452)">5</tspan></text>
  <text
     xml:space="preserve"
     style="font-size:40px;font-style:normal;font-weight:normal;line-height:125%;letter-spacing:0px;word-spacing:0px;fill:none;stroke:url(#linearGradient4542);font-family:Sans"
     x="79.737907"
     y="76.948822"
     id="text4140-4-9-0"
     sodipodi:linespacing="125%"
     inkscape:transform-center-x="-89.105368"
     inkscape:transform-center-y="40.795229"><tspan
       sodipodi:role="line"
       id="tspan4142-2-6-7"
       x="79.737907"
       y="76.948822"
       style="font-size:32px;fill:none;stroke:url(#linearGradient4542)">1</tspan></text>
  <text
     xml:space="preserve"
     style="font-size:40px;font-style:normal;font-weight:normal;line-height:125%;letter-spacing:0px;word-spacing:0px;fill:#ffffff;fill-opacity:1;stroke:url(#linearGradient4637);font-family:Sans"
     x="545.44415"
     y="74.777458"
     id="text4140-4-0-0"
     sodipodi:linespacing="125%"><tspan
       sodipodi:role="line"
       id="tspan4142-2-5-9"
       x="545.44415"
       y="74.777458"
       style="font-size:32px;stroke:url(#linearGradient4637)">6</tspan></text>
  <text
     xml:space="preserve"
     style="font-size:40px;font-style:normal;font-weight:normal;line-height:125%;letter-spacing:0px;word-spacing:0px;fill:#ffffff;fill-opacity:1;stroke:url(#linearGradient4645);font-family:Sans"
     x="691.0011"
     y="223.87653"
     id="text4140-4-0-9"
     sodipodi:linespacing="125%"><tspan
       sodipodi:role="line"
       id="tspan4142-2-5-7"
       x="691.0011"
       y="223.87653"
       style="font-size:32px;stroke:url(#linearGradient4645)">7</tspan></text>
  <text
     xml:space="preserve"
     style="font-size:40px;font-style:normal;font-weight:normal;line-height:125%;letter-spacing:0px;word-spacing:0px;fill:#ffffff;fill-opacity:1;stroke:url(#linearGradient4808);font-family:Sans"
     x="507.35983"
     y="346.08701"
     id="text4140-4-08"
     sodipodi:linespacing="125%"><tspan
       sodipodi:role="line"
       id="tspan4142-2-4"
       x="507.35983"
       y="346.08701"
       style="font-size:30px;stroke:url(#linearGradient4808)">8</tspan></text>
  <text
     xml:space="preserve"
     style="font-size:40px;font-style:normal;font-weight:normal;line-height:125%;letter-spacing:0px;word-spacing:0px;fill:#ffffff;fill-opacity:1;stroke:url(#linearGradient4816);font-family:Sans"
     x="506.71967"
     y="446.45831"
     id="text4140-4-0-9-8"
     sodipodi:linespacing="125%"><tspan
       sodipodi:role="line"
       id="tspan4142-2-5-7-3"
       x="506.71967"
       y="446.45831"
       style="font-size:32px;stroke:url(#linearGradient4816)">9</tspan></text>
  <text
     xml:space="preserve"
     style="font-size:40px;font-style:normal;font-weight:normal;line-height:125%;letter-spacing:0px;word-spacing:0px;fill:#ffffff;fill-opacity:1;stroke:url(#linearGradient4824);font-family:Sans"
     x="805.72437"
     y="426.55774"
     id="text4140-4-0-9-0"
     sodipodi:linespacing="125%"><tspan
       sodipodi:role="line"
       id="tspan4142-2-5-7-5"
       x="805.72437"
       y="426.55774"
       style="font-size:32px;stroke:url(#linearGradient4824)">10</tspan></text>
  <rect
     style="fill:none;stroke:url(#linearGradient3157);stroke-width:4.5;stroke-miterlimit:4;stroke-dasharray:none"
     id="rect3049-6-0"
     width="993.38873"
     height="20.720661"
     x="3.2714653"
     y="516.67432" />
  <text
     xml:space="preserve"
     style="font-size:40px;font-style:normal;font-weight:normal;line-height:125%;letter-spacing:0px;word-spacing:0px;fill:#ffffff;fill-opacity:1;stroke:url(#linearGradient4013);font-family:Sans"
     x="478.67776"
     y="538.03766"
     id="text4140-4-08-3"
     sodipodi:linespacing="125%"><tspan
       sodipodi:role="line"
       id="tspan4142-2-4-1"
       x="478.67776"
       y="538.03766"
       style="font-size:28px;stroke:url(#linearGradient4013)">11</tspan></text>
</svg>
