{
"root-type":"ext:cSubAssessment",
"extra-source":"/data/archive/projects/{project}/experiments/{expt_id}",
"fields":[
{"label":"Subject-ID", "field":"ext:cSubAssessment/SUBJECT_ID", "required":false, "key": "subject_id"},
{"label":"Experiment-ID", "field":"ext:cSubAssessment/EXPT_ID", "required":true, "key": "expt_id"},
{"label":"Date", "field":"ext:cSubAssessment/DATE", "required":false, "key": "date"},
{"label":"Age", "field":"ext:cSubAssessment/AGE", "required":false, "key": "age"},
{"label":"Projects", "field":"ext:cSubAssessment/PROJECTS", "required":false, "key": "projects"},
{"label":"Project", "field":"ext:cSubAssessment/PROJECT", "required":true, "key": "project"},
{"label":"Label", "field":"ext:cSubAssessment/LABEL", "required":false, "key": "label"},
{"label":"Insert Date", "field":"ext:cSubAssessment/INSERT_DATE", "required":false, "key": "insert_date"},
{"label":"Insert User", "field":"ext:cSubAssessment/INSERT_USER", "required":false, "key": "insert_user"},
{"label":"Datatype", "field":"ext:cSubAssessment/DATATYPE", "required":false, "key": "datatype"},
{"label":"Datatype Category", "field":"ext:cSubAssessment/DATATYPE_CATEGORY", "required":false, "key": "datatype_category"},
{"label":"Import Date", "field":"ext:cSubAssessment/IMPORT_DATE", "required":false, "key": "import_date"},
{"label":"Project Protocol", "field":"ext:cSubAssessment/PROJECT_PROTOCOL", "required":false, "key": "project_protocol"},
{"label":"Validation Method", "field":"ext:cSubAssessment/VALIDATION_METHOD", "required":false, "key": "validation_method"},
{"label":"Validation Status", "field":"ext:cSubAssessment/VALIDATION_STATUS", "required":false, "key": "validation_status"}
]
}
