{
"root-type":"xnat:mrSessionData",
"fields":[
{"label":"Session-ID", "field":"xnat:mrSessionData/SESSION_ID", "required":false, "key": "session_id"},
{"label":"Date", "field":"xnat:mrSessionData/DATE", "required":false, "key": "date"},
{"label":"DTI-Count", "field":"xnat:mrSessionData/DTI_COUNT", "required":false, "key": "dti_count"},
{"label":"Operator (Scan-Conductor)", "field":"xnat:mrSessionData/OPERATOR", "required":false, "key": "operator"},
{"label":"Label", "field":"xnat:mrSessionData/LABEL", "required":false, "key": "label"},
{"label":"Project-ID", "field":"xnat:mrSessionData/PROJECT", "required":false, "key": "project"},
{"label":"Insert-User", "field":"xnat:mrSessionData/INSERT_USER", "required":false, "key": "insert_user"},
{"label":"Insert-Date", "field":"xnat:mrSessionData/INSERT_DATE", "required":false, "key": "insert_date"},
{"label":"Last modified", "field":"xnat:mrSessionData/LAST_MODIFIED", "required":false, "key": "last_modified"},
{"label":"Type", "field":"xnat:mrSessionData/TYPE", "required":false, "key": "type"},
{"label":"Scanner", "field":"xnat:mrSessionData/SCANNER", "required":false, "key": "scanner"},
{"label":"Subject-ID", "field":"xnat:mrSessionData/SUBJECT_ID", "required":false, "key": "subject_id"},
{"label":"MR-Scan-Count-AAG", "field":"xnat:mrSessionData/MR_SCAN_COUNT_AGG", "required":false, "key": "mr_scan_count_agg"}
]
}
